Place,Name,BirthYear,Team,WeightClassKg,BodyweightKg,Bench1Kg,Bench2Kg,Bench3Kg,Best3BenchKg,Deadlift1Kg,Deadlift2Kg,Deadlift3Kg,Best3DeadliftKg,TotalKg,Event,Equipment,Sex,Division,BirthDate
1,Dorota Grabara,1987,Gryfów Śląski,56,52.1,40,45,47.5,47.5,,,,,47.5,B,Raw,F,Open,
2,Magdalena Chylińska,1981,Świdnica,56,54.6,40,-42.5,-42.5,40,,,,,40,B,Raw,F,Open,
1,Jolanta Anasiewicz-Popowicz,1969,Bolesławiec,60,59.9,105,110,-112.5,110,,,,,110,B,Raw,F,Open,
2,Magdalena Kowalczyk,1984,Kalisz,60,60,75,,,75,,,,,75,B,Raw,F,Open,
3,Katarzyna Adamczyk,1993,Dzierżoniów,60,59.7,62.5,-65,-65,62.5,,,,,62.5,B,Raw,F,Open,
4,Zuzana Jędraszczyk,2001,Łódź,60,57.8,52.5,55,-57.5,55,,,,,55,B,Raw,F,Open,
1,Joanna Kosik,1982,Warszawa,67.5,64.4,100,105,-110,105,,,,,105,B,Raw,F,Open,
2,Dominika Sanowska,1996,Myślenice,67.5,63.4,67.5,-70,70,70,,,,,70,B,Raw,F,Open,
3,Agnieszka Soińska,1989,Kalisz,67.5,60.1,60,65,67.5,67.5,,,,,67.5,B,Raw,F,Open,
4,Kamila Wyderska,1996,Międzylesie,67.5,63.6,60,65,-67.5,65,,,,,65,B,Raw,F,Open,
5,Ewa Niśkiewicz,1982,Gliwice,67.5,66.5,50,57.5,-67.5,57.5,,,,,57.5,B,Raw,F,Open,
6,Angelika Mroczek,1996,Piasek,67.5,65.9,45,-50,-50,45,,,,,45,B,Raw,F,Open,
1,Katarzyna Kozakiewicz,1998,Węgorzewo,75,72.2,87.5,95,-100,95,,,,,95,B,Raw,F,Open,
2,Agata Ceranowska,1996,Łódź,75,73,72.5,-75,-75,72.5,,,,,72.5,B,Raw,F,Open,
3,Monika Hucaluk,1975,Polkowice,75,68.3,55,60,-67.5,60,,,,,60,B,Raw,F,Open,
4,Barbara Bajerek,1996,Kraków,75,72.9,55,-60,-60,55,,,,,55,B,Raw,F,Open,
5,Amelia Mariańska,2000,Szczytno,75,69.4,50,52.5,-60,52.5,,,,,52.5,B,Raw,F,Open,
6,Małgorzata Meronk,1959,Gdynia,75,70.8,40,-42.5,-45,40,,,,,40,B,Raw,F,Open,
1,Małgorzata Malikowska-Pikuła,1985,Warszawa,82.5,80.5,-145,150,157.5,157.5,,,,,157.5,B,Raw,F,Open,
2,Karolina Sobolewska,1987,Wałbrzych,82.5,81.3,95,97.5,100,100,,,,,100,B,Raw,F,Open,
3,Anna Krasnopolska,1982,Giżycko,82.5,81.7,65,70,75,75,,,,,75,B,Raw,F,Open,
1,Oktawia Lurka,1990,Rzeszów,90,88.4,122.5,127.5,130,130,,,,,130,B,Raw,F,Open,
1,Magdalena Plewa,1977,Gdynia,90+,96.2,57.5,60,62.5,62.5,,,,,62.5,B,Raw,F,Open,
1,Katarzyna Kozakiewicz,1998,Węgorzewo,75,72.2,87.5,95,-100,95,,,,,95,B,Raw,F,Juniors 20-23,
2,Zuzana Jędraszczyk,2001,Łódź,60,57.8,52.5,55,-57.5,55,,,,,55,B,Raw,F,Juniors 20-23,
3,Amelia Mariańska,2000,Szczytno,75,69.4,50,52.5,-60,52.5,,,,,52.5,B,Raw,F,Juniors 20-23,
1,Monika Hucaluk,1975,Polkowice,75,68.3,55,60,-67.5,60,,,,,60,B,Raw,F,Masters 40-49,
2,Magdalena Plewa,1977,Gdynia,90+,96.2,57.5,60,62.5,62.5,,,,,62.5,B,Raw,F,Masters 40-49,
3,Magdalena Chylińska,1981,Świdnica,56,54.6,40,-42.5,-42.5,40,,,,,40,B,Raw,F,Masters 40-49,
1,Jolanta Anasiewicz-Popowicz,1969,Bolesławiec,60,59.9,105,110,-112.5,110,,,,,110,B,Raw,F,Masters 50-59,
1,Małgorzata Meronk,1959,Gdynia,75,70.8,40,-42.5,-45,40,,,,,40,B,Raw,F,Masters 60-69,
1,Mariusz Pikor,1988,Wrocław,67.5,67.3,140,145,-147.5,145,,,,,145,B,Raw,M,Open,
2,Tomasz Wolski,1989,Sobótka,67.5,65.7,125,127.5,-130,127.5,,,,,127.5,B,Raw,M,Open,
3,Sebastian Białachowski,1976,Nowy Dwór Gdański,67.5,67.3,115,122.5,-130,122.5,,,,,122.5,B,Raw,M,Open,
4,Patryk Wójcik,2000,Brnik,67.5,67,115,-122.5,-122.5,115,,,,,115,B,Raw,M,Open,
5,Dominik Szczebak,1997,Wrocław,67.5,65.2,102.5,105,-107.5,105,,,,,105,B,Raw,M,Open,
6,Jan Kawałko,2005,Witoszów Dolny,67.5,61.4,80,-90,-90,80,,,,,80,B,Raw,M,Open,
1,Maciej Kreczmer,1994,Milicz,75,74.5,-160,165,167.5,167.5,,,,,167.5,B,Raw,M,Open,
2,Hubert Raba,1999,Strzelin,75,74.5,155,-160,160,160,,,,,160,B,Raw,M,Open,
3,Damian Lisowik,1990,Bolesławiec,75,73.9,145,152.5,-160,152.5,,,,,152.5,B,Raw,M,Open,
4,Michał Mikołajek,1987,Przewmyśl,75,74,142.5,147.5,-150,147.5,,,,,147.5,B,Raw,M,Open,
5,Wiesław Kiwacki,1976,Jaczów,75,73.1,120,140,-142.5,140,,,,,140,B,Raw,M,Open,
6,Krystian Mróz,1998,Olsztyn,75,73.5,137.5,-145,-145,137.5,,,,,137.5,B,Raw,M,Open,
7,Maciej Dobrzyński,1991,Nowy Dwór Gdański,75,72.4,135,-142.5,-142.5,135,,,,,135,B,Raw,M,Open,
8,Kostiantyn Kovalenko,1990,Wrocław,75,73.6,117.5,-125,-125,117.5,,,,,117.5,B,Raw,M,Open,
1,Michał Krętosz,1993,Czerwionka Leszczyny,82.5,82.4,182.5,185,-187.5,185,,,,,185,B,Raw,M,Open,
2,Stanisław Gąsienica-Samek,1983,Zakopane,82.5,81.4,172.5,177.5,180,180,,,,,180,B,Raw,M,Open,
3,Michał Kowalski,2001,Dalborowice,82.5,81.4,167.5,175,-177.5,175,,,,,175,B,Raw,M,Open,
4,Łukasz Szczerba,1993,Ząbkowice Śląskie,82.5,81.9,165,172.5,-180,172.5,,,,,172.5,B,Raw,M,Open,
5,Janusz Łazorko,1990,Przemyśl,82.5,80.5,160,167.5,-175,167.5,,,,,167.5,B,Raw,M,Open,
6,Marcin Szreiber,1981,Międzylesie,82.5,81,150,160,-165,160,,,,,160,B,Raw,M,Open,
7,Kacper Pawlak,2003,Wschowa,82.5,82.4,130,137.5,142.5,142.5,,,,,142.5,B,Raw,M,Open,
8,Mikołaj Gerus,1998,Świdnica,82.5,79.5,117.5,-122.5,122.5,122.5,,,,,122.5,B,Raw,M,Open,
9,Arkadiusz Winiarczyk,2003,Przemyśl,82.5,78.3,100,107.5,115,115,,,,,115,B,Raw,M,Open,
10,Szymon Obolewicz,2006,Złotoryja,82.5,80,77.5,87.5,95,95,,,,,95,B,Raw,M,Open,
11,Zbigniew Boczar,1985,Lwówek Śląski,82.5,82,20,,,20,,,,,20,B,Raw,M,Open,
1,Artur Miksa,1983,Szczecin,90,88,225,235,240,240,,,,,240,B,Raw,M,Open,
2,Grzegorz Joka,1987,Giżycko,90,89.9,175,182.5,187.5,187.5,,,,,187.5,B,Raw,M,Open,
3,Łukasz Gajdulewicz,1997,Międzylesie,90,90,170,177.5,-187.5,177.5,,,,,177.5,B,Raw,M,Open,
4,Mateusz Józefów,1991,Złotoryja,90,88,157.5,165,172.5,172.5,,,,,172.5,B,Raw,M,Open,
5,Paweł Niesatki,1989,Bielsko Biała,90,88.5,160,162.5,-165,162.5,,,,,162.5,B,Raw,M,Open,
6,Mariusz Marszalik,1995,Myślenice,90,88.2,157.5,-162.5,-162.5,157.5,,,,,157.5,B,Raw,M,Open,
7,Sławomír Purta,1973,Bolesławiec,90,88.4,150,-155,-155,150,,,,,150,B,Raw,M,Open,
8,Tomasz Zioło,2003,Karpacz,90,87.1,145,147.5,-150,147.5,,,,,147.5,B,Raw,M,Open,
9,Wojciech Witkowski,2003,Ząbkowice Śląskie,90,83.5,125,-135,-135,125,,,,,125,B,Raw,M,Open,
10,Jakub Stafa,2001,Przemyśl,90,84.8,110,120,-130,120,,,,,120,B,Raw,M,Open,
11,Oliwier Gałosz,2005,Ośno Lubuskie,90,89.3,80,-90,90,90,,,,,90,B,Raw,M,Open,
12,Roman Wanot,1948,Siemianowice,90,87.2,85,-90,-90,85,,,,,85,B,Raw,M,Open,
DQ,Krystian Kazura,2004,Przemyśl,90,86.6,-105,-110,-110,,,,,,,B,Raw,M,Open,
1,Tomasz Trzciński,1982,Piecki,100,100,-215,215,220,220,,,,,220,B,Raw,M,Open,
2,Grzegorz Kopaniarz,1988,Giżycko,100,97,200,207.5,-215,207.5,,,,,207.5,B,Raw,M,Open,
3,Tomasz Pakulak,1991,Szczecin,100,99,190,200,205,205,,,,,205,B,Raw,M,Open,
4,Hani Albert Lazam,1988,Łódź,100,97.5,202.5,-207.5,-212.5,202.5,,,,,202.5,B,Raw,M,Open,
5,Bartosz Wójtowiec,1994,Jaworzno,100,98.6,190,200,-210,200,,,,,200,B,Raw,M,Open,
6,Mateusz Garbowski,1993,Ząbkowice Śląskie,100,97.2,185,195,-200,195,,,,,195,B,Raw,M,Open,
7,Michał Kopiec,1974,Siemianowice Śląskie,100,93,185,192.5,-200,192.5,,,,,192.5,B,Raw,M,Open,
8,Andrzej Stęcel,1989,Budziszów Wielki,100,93,180,187.5,-195,187.5,,,,,187.5,B,Raw,M,Open,
9,Leszek Pasieka,1955,Występ,100,92.7,160,165,-170,165,,,,,165,B,Raw,M,Open,
10,Andrzej Juraszek,1977,Międzylesie,100,94,160,165,-167.5,165,,,,,165,B,Raw,M,Open,
11,Mateusz Kubas,1993,Pabianice,100,94.8,162.5,-167.5,-167.5,162.5,,,,,162.5,B,Raw,M,Open,
12,Michał Podyma,1979,Jaworzno,100,99.1,155,160,-165,160,,,,,160,B,Raw,M,Open,
13,Artur Hatala,1997,Świdnica,100,98,150,155,-160,155,,,,,155,B,Raw,M,Open,
14,Henryk Odelski,1949,Namysłów,100,92.5,110,115,120,120,,,,,120,B,Raw,M,Open,
DQ,Paweł Marczak,1988,Nowy Dwór Gdański,100,97.9,-185,-185,-185,,,,,,,B,Raw,M,Open,
1,Adrian Grabski,1982,Bielsko Biała,110,108.3,220,230,240,240,,,,,240,B,Raw,M,Open,
2,Seweryn Praszkowski,1997,Pabianice,110,108.8,210,220,225,225,,,,,225,B,Raw,M,Open,
3,Arkadiusz Redzynia,1993,Pabianice,110,109.2,220,225,-230,225,,,,,225,B,Raw,M,Open,
4,Rafał Michalski,1993,Stargard,110,107,205,215,-220,215,,,,,215,B,Raw,M,Open,
5,Konrad Michalak,1992,Wirki,110,104,205,-210,-210,205,,,,,205,B,Raw,M,Open,
6,Mariusz Tatuśko,1975,Świebodzice,110,104,190,200,-205,200,,,,,200,B,Raw,M,Open,
7,Damian Głuchowski,1993,Chiran,110,108.4,200,-205,-205,200,,,,,200,B,Raw,M,Open,
8,Kajetan Nakonieczny,2000,Gdynia,110,108.8,185,192.5,-200,192.5,,,,,192.5,B,Raw,M,Open,
9,Przemysław Rybacki,1985,Hadra,110,110,185,-200,-200,185,,,,,185,B,Raw,M,Open,
10,Dawid Szajek,2001,Dobieżyn,110,100.9,170,180,-185,180,,,,,180,B,Raw,M,Open,
11,Tomasz Napierała,1979,Wronki,110,103.8,172.5,180,-185,180,,,,,180,B,Raw,M,Open,
12,Łukasz Waszczuk,1988,Siedlce,110,102.1,170,177.5,-182.5,177.5,,,,,177.5,B,Raw,M,Open,
13,Mateusz Wrzesiński,1993,Bydgoszcz,110,106.9,170,-190,-190,170,,,,,170,B,Raw,M,Open,
14,Emil Gzowski,1982,Rzepin,110,109,150,157.5,-160,157.5,,,,,157.5,B,Raw,M,Open,
15,Roman Raczykowski,1961,Siemianowice Śląskie,110,100.6,130,140,-142.5,140,,,,,140,B,Raw,M,Open,
1,Robert Drozdowski,1979,Gąsocin,125,123.3,230,240,-250,240,,,,,240,B,Raw,M,Open,
2,Wiktor Szłapka,1992,Kościan,125,125,192.5,197.5,-202.5,197.5,,,,,197.5,B,Raw,M,Open,
3,Marcin Nisiewicz,1992,Wronki,125,121.8,180,190,-197.5,190,,,,,190,B,Raw,M,Open,
4,Adam Gembarski,1992,Wałcz,125,122.4,170,180,-185,180,,,,,180,B,Raw,M,Open,
5,Marek Sankowski,1978,Gdynia,125,112.1,160,170,-180,170,,,,,170,B,Raw,M,Open,
6,Artur Lech,1971,Wałbrzych,125,116,160,-170,-170,160,,,,,160,B,Raw,M,Open,
7,Krzysztof Turkiewicz,1986,Złotoryja,125,120,160,-165,-165,160,,,,,160,B,Raw,M,Open,
8,Bartłomiej Gieroń,1990,Łódź,125,120.7,140,150,160,160,,,,,160,B,Raw,M,Open,
1,Szymon Wójtowicz,1994,Szczytno,140,139.8,240,242.5,-250,242.5,,,,,242.5,B,Raw,M,Open,
2,Artur Kabza,1990,Września,140,125.5,240,-247.5,-250,240,,,,,240,B,Raw,M,Open,
3,Tomasz Rachwol,1991,Katowice,140,125.1,210,215,-220,215,,,,,215,B,Raw,M,Open,
4,Radosław Smoliński,1985,Nowy Dwór Gdański,140,125.6,205,-210,-210,205,,,,,205,B,Raw,M,Open,
5,Krzysztof Halczyk,1974,Międzylesie,140,125.3,175,-177.5,-177.5,175,,,,,175,B,Raw,M,Open,
6,Daniel Prus,1977,Jelenia Góra,140,136.7,120,125,-130,125,,,,,125,B,Raw,M,Open,
DQ,Tomasz Wyrwisz,1987,Świebodzice,140,127.4,-180,-180,-180,,,,,,,B,Raw,M,Open,
DQ,Jakub Elgert,2000,Kartuzy,140,130.2,-207.5,-207.5,-207.5,,,,,,,B,Raw,M,Open,
1,Dawid Elgert,1988,Żukowo,140+,160,245,255,-260,255,,,,,255,B,Raw,M,Open,
2,Dawid Olkiewicz,1994,Gorzow Wielkopolski,140+,157,245,252.5,-255,252.5,,,,,252.5,B,Raw,M,Open,
3,Maciej Kuźma,1993,Gdynia,140+,141,-225,225,-230,225,,,,,225,B,Raw,M,Open,
4,Mateusz Pawlikowski,1992,Wrocław,140+,140.1,200,210,,210,,,,,210,B,Raw,M,Open,
5,Grzegorz Kantor,1972,Międzylesie,140+,143.9,175,180,185,185,,,,,185,B,Raw,M,Open,
6,Michał Kotlewski,1981,Grudziądz,140+,146,160,170,175,175,,,,,175,B,Raw,M,Open,
1,Jan Kawałko,2005,Witoszów Dolny,67.5,61.4,80,-90,-90,80,,,,,80,B,Raw,M,Teen 14-16,
2,Szymon Obolewicz,2006,Złotoryja,82.5,80,77.5,87.5,95,95,,,,,95,B,Raw,M,Teen 14-16,
3,Oliwier Gałosz,2005,Ośno Lubuskie,90,89.3,80,-90,90,90,,,,,90,B,Raw,M,Teen 14-16,
1,Tomasz Zioło,2003,Karpacz,90,87.1,145,147.5,-150,147.5,,,,,147.5,B,Raw,M,Sub-Juniors 17-19,
2,Kacper Pawlak,2003,Wschowa,82.5,82.4,130,137.5,142.5,142.5,,,,,142.5,B,Raw,M,Sub-Juniors 17-19,
3,Wojciech Witkowski,2003,Ząbkowice Śląskie,90,83.5,125,-135,-135,125,,,,,125,B,Raw,M,Sub-Juniors 17-19,
4,Arkadiusz Winiarczyk,2003,Przemyśl,82.5,78.3,100,107.5,115,115,,,,,115,B,Raw,M,Sub-Juniors 17-19,
DQ,Krystian Kazura,2004,Przemyśl,90,86.6,-105,-110,-110,,,,,,,B,Raw,M,Sub-Juniors 17-19,
1,Michał Kowalski,2001,Dalborowice,82.5,81.4,167.5,175,-177.5,175,,,,,175,B,Raw,M,Juniors 20-23,
2,Hubert Raba,1999,Strzelin,75,74.5,155,-160,160,160,,,,,160,B,Raw,M,Juniors 20-23,
3,Kajetan Nakonieczny,2000,Gdynia,110,108.8,185,192.5,-200,192.5,,,,,192.5,B,Raw,M,Juniors 20-23,
4,Dawid Szajek,2001,Dobieżyn,110,100.9,170,180,-185,180,,,,,180,B,Raw,M,Juniors 20-23,
5,Adrian Chełmecki,1999,Łódź,56,55.1,110,115,-120,115,,,,,115,B,Raw,M,Juniors 20-23,
6,Krystian Mróz,1998,Olsztyn,75,73.5,137.5,-145,-145,137.5,,,,,137.5,B,Raw,M,Juniors 20-23,
7,Patryk Wójcik,2000,Brnik,67.5,67,115,-122.5,-122.5,115,,,,,115,B,Raw,M,Juniors 20-23,
8,Mikołaj Gerus,1998,Świdnica,82.5,79.5,117.5,-122.5,122.5,122.5,,,,,122.5,B,Raw,M,Juniors 20-23,
9,Jakub Stafa,2001,Przemyśl,90,84.8,110,120,-130,120,,,,,120,B,Raw,M,Juniors 20-23,
DQ,Jakub Elgert,2000,Kartuzy,140,130.2,-207.5,-207.5,-207.5,,,,,,,B,Raw,M,Juniors 20-23,
1,Robert Drozdowski,1979,Gąsocin,125,123.3,230,240,-250,240,,,,,240,B,Raw,M,Masters 40-49,
2,Michał Kopiec,1974,Siemianowice Śląskie,100,93,185,192.5,-200,192.5,,,,,192.5,B,Raw,M,Masters 40-49,
3,Mariusz Tatuśko,1975,Świebodzice,110,104,190,200,-205,200,,,,,200,B,Raw,M,Masters 40-49,
4,Marcin Szreiber,1981,Międzylesie,82.5,81,150,160,-165,160,,,,,160,B,Raw,M,Masters 40-49,
5,Tomasz Napierała,1979,Wronki,110,103.8,172.5,180,-185,180,,,,,180,B,Raw,M,Masters 40-49,
6,Andrzej Juraszek,1977,Międzylesie,100,94,160,165,-167.5,165,,,,,165,B,Raw,M,Masters 40-49,
7,Grzegorz Kantor,1972,Międzylesie,140+,143.9,175,180,185,185,,,,,185,B,Raw,M,Masters 40-49,
8,Wiesław Kiwacki,1976,Jaczów,75,73.1,120,140,-142.5,140,,,,,140,B,Raw,M,Masters 40-49,
9,Krzysztof Halczyk,1974,Międzylesie,140,125.3,175,-177.5,-177.5,175,,,,,175,B,Raw,M,Masters 40-49,
10,Marek Sankowski,1978,Gdynia,125,112.1,160,170,-180,170,,,,,170,B,Raw,M,Masters 40-49,
11,Michał Podyma,1979,Jaworzno,100,99.1,155,160,-165,160,,,,,160,B,Raw,M,Masters 40-49,
12,Michał Kotlewski,1981,Grudziądz,140+,146,160,170,175,175,,,,,175,B,Raw,M,Masters 40-49,
13,Sławomír Purta,1973,Bolesławiec,90,88.4,150,-155,-155,150,,,,,150,B,Raw,M,Masters 40-49,
14,Sebastian Białachowski,1976,Nowy Dwór Gdański,67.5,67.3,115,122.5,-130,122.5,,,,,122.5,B,Raw,M,Masters 40-49,
15,Daniel Prus,1977,Jelenia Góra,140,136.7,120,125,-130,125,,,,,125,B,Raw,M,Masters 40-49,
1,Artur Lech,1971,Wałbrzych,125,116,160,-170,-170,160,,,,,160,B,Raw,M,Masters 50-59,
1,Leszek Pasieka,1955,Występ,100,92.7,160,165,-170,165,,,,,165,B,Raw,M,Masters 60-69,
2,Roman Raczykowski,1961,Siemianowice Śląskie,110,100.6,130,140,-142.5,140,,,,,140,B,Raw,M,Masters 60-69,
1,Henryk Odelski,1949,Namysłów,100,92.5,110,115,120,120,,,,,120,B,Raw,M,Masters 70-79,
2,Roman Wanot,1948,Siemianowice,90,87.2,85,-90,-90,85,,,,,85,B,Raw,M,Masters 70-79,
1,Katarzyna Adamczyk,1993,Dzierżoniów,60,59.7,62.5,-65,-65,62.5,,,,,62.5,B,Raw,F,Open,
1,Angelika Mroczek,1996,Piasek,67.5,65.9,45,-50,-50,45,,,,,45,B,Raw,F,Open,
1,Katarzyna Kozakiewicz,1998,Węgorzewo,75,72.2,87.5,95,-100,95,,,,,95,B,Raw,F,Open,
2,Agata Ceranowska,1996,Łódź,75,73,72.5,-75,-75,72.5,,,,,72.5,B,Raw,F,Open,
3,Amelia Mariańska,2000,Szczytno,75,69.4,50,52.5,-60,52.5,,,,,52.5,B,Raw,F,Open,
1,Anna Krasnopolska,1982,Giżycko,82.5,81.7,65,70,75,75,,,,,75,B,Raw,F,Open,
1,Oktawia Lurka,1990,Rzeszów,90,88.4,122.5,127.5,130,130,,,,,130,B,Raw,F,Open,
1,Katarzyna Kozakiewicz,1998,Węgorzewo,75,72.2,87.5,95,-100,95,,,,,95,B,Raw,F,Juniors 20-23,
2,Amelia Mariańska,2000,Szczytno,75,69.4,50,52.5,-60,52.5,,,,,52.5,B,Raw,F,Juniors 20-23,
1,Mariusz Pikor,1988,Wrocław,67.5,67.3,140,145,-147.5,145,,,,,145,B,Raw,M,Open,
2,Sebastian Białachowski,1976,Nowy Dwór Gdański,67.5,67.3,115,122.5,-130,122.5,,,,,122.5,B,Raw,M,Open,
3,Jakub Stalica,1997,Gdynia,67.5,66,97.5,102.5,105,105,,,,,105,B,Raw,M,Open,
1,Hubert Raba,1999,Strzelin,75,74.5,155,-160,160,160,,,,,160,B,Raw,M,Open,
2,Michał Mikołajek,1987,Przewmyśl,75,74,142.5,147.5,-150,147.5,,,,,147.5,B,Raw,M,Open,
3,Krystian Mróz,1998,Olsztyn,75,73.5,137.5,-145,-145,137.5,,,,,137.5,B,Raw,M,Open,
4,Damian Żyżniewski,1986,Opoczno,75,73.8,130,-135,-135,130,,,,,130,B,Raw,M,Open,
5,Kacper Grabowski,1998,Reda,75,74.5,125,130,-135,130,,,,,130,B,Raw,M,Open,
DQ,Sebastian Bogdan,2001,Hajnówka,75,74.4,-100,-100,-100,,,,,,,B,Raw,M,Open,
1,Stanisław Gąsienica-Samek,1983,Zakopane,82.5,81.4,172.5,177.5,180,180,,,,,180,B,Raw,M,Open,
2,Piotr Budych,1994,Tczew,82.5,81.7,155,-160,-165,155,,,,,155,B,Raw,M,Open,
3,Roch Szumarowski-Plewa,1973,Kamienna Góra,82.5,78,120,127.5,-132.5,127.5,,,,,127.5,B,Raw,M,Open,
4,Wiktor Ciechera,1996,Poznań,82.5,78,110,115,-120,115,,,,,115,B,Raw,M,Open,
5,Zbigniew Boczar,1985,Lwówek Śląski,82.5,82,20,,,20,,,,,20,B,Raw,M,Open,
1,Grzegorz Joka,1987,Giżycko,90,89.9,175,182.5,187.5,187.5,,,,,187.5,B,Raw,M,Open,
2,Mateusz Szcześniak,1999,Gdynia,90,89.9,167.5,-172.5,-172.5,167.5,,,,,167.5,B,Raw,M,Open,
3,Mariusz Stachowiak,1997,Gdynia,90,82.8,150,155,-160,155,,,,,155,B,Raw,M,Open,
4,Marcin Cichy,1996,Jawor,90,89.2,147.5,-155,-160,147.5,,,,,147.5,B,Raw,M,Open,
1,Tomasz Trzciński,1982,Piecki,100,100,-215,215,220,220,,,,,220,B,Raw,M,Open,
2,Grzegorz Kopaniarz,1988,Giżycko,100,97,200,207.5,-215,207.5,,,,,207.5,B,Raw,M,Open,
3,Bartosz Wójtowiec,1994,Jaworzno,100,98.6,190,200,-210,200,,,,,200,B,Raw,M,Open,
4,Michał Matynia,1987,Ełk,100,95.9,170,177.5,182.5,182.5,,,,,182.5,B,Raw,M,Open,
5,Andrzej Juraszek,1977,Międzylesie,100,94,160,165,-167.5,165,,,,,165,B,Raw,M,Open,
6,Mariusz Chodak,1977,Siedlce,100,94.3,130,-140,-147.5,130,,,,,130,B,Raw,M,Open,
DQ,Jan Łopusiewicz,1999,Wrocław,100,98.6,-170,-170,-170,,,,,,,B,Raw,M,Open,
DQ,Paweł Marczak,1988,Nowy Dwór Gdański,100,97.9,-185,-185,-185,,,,,,,B,Raw,M,Open,
1,Rafał Jaroszewski,1984,Łapy,110,109.2,185,192.5,-200,192.5,,,,,192.5,B,Raw,M,Open,
2,Przemysław Rybacki,1985,Hadra,110,110,185,-200,-200,185,,,,,185,B,Raw,M,Open,
3,Tomasz Napierała,1979,Wronki,110,103.8,172.5,180,-185,180,,,,,180,B,Raw,M,Open,
4,Łukasz Waszczuk,1988,Siedlce,110,102.1,170,177.5,-182.5,177.5,,,,,177.5,B,Raw,M,Open,
5,Sławomir Przetacznik,1994,Białogard,110,101.2,130,-135,137.5,137.5,,,,,137.5,B,Raw,M,Open,
1,Robert Drozdowski,1979,Gąsocin,125,123.3,230,240,-250,240,,,,,240,B,Raw,M,Open,
2,Marcin Nisiewicz,1992,Wronki,125,121.8,180,190,-197.5,190,,,,,190,B,Raw,M,Open,
3,Paweł Sztachelek,1991,Orzysz,125,120.2,180,185,-190,185,,,,,185,B,Raw,M,Open,
4,Adam Gembarski,1992,Wałcz,125,122.4,170,180,-185,180,,,,,180,B,Raw,M,Open,
5,Krzysztof Turkiewicz,1986,Złotoryja,125,120,160,-165,-165,160,,,,,160,B,Raw,M,Open,
1,Tomasz Rachwol,1991,Katowice,140,125.1,210,215,-220,215,,,,,215,B,Raw,M,Open,
2,Radosław Smoliński,1985,Nowy Dwór Gdański,140,125.6,205,-210,-210,205,,,,,205,B,Raw,M,Open,
3,Marcin Jankowski,1984,Jagodne,140,139,200,205,-210,205,,,,,205,B,Raw,M,Open,
4,Krzysztof Halczyk,1974,Międzylesie,140,125.3,175,-177.5,-177.5,175,,,,,175,B,Raw,M,Open,
1,Dawid Olkiewicz,1994,Gorzow Wielkopolski,140+,157,245,252.5,-255,252.5,,,,,252.5,B,Raw,M,Open,
2,Maciej Kuźma,1993,Gdynia,140+,141,-225,225,-230,225,,,,,225,B,Raw,M,Open,
3,Michał Kotlewski,1981,Grudziądz,140+,146,160,170,175,175,,,,,175,B,Raw,M,Open,
1,Hubert Raba,1999,Strzelin,75,74.5,155,-160,160,160,,,,,160,B,Raw,M,Juniors 20-23,
2,Mateusz Szcześniak,1999,Gdynia,90,89.9,167.5,-172.5,-172.5,167.5,,,,,167.5,B,Raw,M,Juniors 20-23,
3,Krystian Mróz,1998,Olsztyn,75,73.5,137.5,-145,-145,137.5,,,,,137.5,B,Raw,M,Juniors 20-23,
4,Kacper Grabowski,1998,Reda,75,74.5,125,130,-135,130,,,,,130,B,Raw,M,Juniors 20-23,
DQ,Jan Łopusiewicz,1999,Wrocław,100,98.6,-170,-170,-170,,,,,,,B,Raw,M,Juniors 20-23,
DQ,Sebastian Bogdan,2001,Hajnówka,75,74.4,-100,-100,-100,,,,,,,B,Raw,M,Juniors 20-23,
1,Robert Drozdowski,1979,Gąsocin,125,123.3,230,240,-250,240,,,,,240,B,Raw,M,Masters 40-49,
2,Tomasz Napierała,1979,Wronki,110,103.8,172.5,180,-185,180,,,,,180,B,Raw,M,Masters 40-49,
3,Andrzej Juraszek,1977,Międzylesie,100,94,160,165,-167.5,165,,,,,165,B,Raw,M,Masters 40-49,
4,Krzysztof Halczyk,1974,Międzylesie,140,125.3,175,-177.5,-177.5,175,,,,,175,B,Raw,M,Masters 40-49,
5,Michał Kotlewski,1981,Grudziądz,140+,146,160,170,175,175,,,,,175,B,Raw,M,Masters 40-49,
6,Sebastian Białachowski,1976,Nowy Dwór Gdański,67.5,67.3,115,122.5,-130,122.5,,,,,122.5,B,Raw,M,Masters 40-49,
7,Roch Szumarowski-Plewa,1973,Kamienna Góra,82.5,78,120,127.5,-132.5,127.5,,,,,127.5,B,Raw,M,Masters 40-49,
8,Mariusz Chodak,1977,Siedlce,100,94.3,130,-140,-147.5,130,,,,,130,B,Raw,M,Masters 40-49,
1,Klaudia Madeja,2000,Wrocław,48,45.1,,,,,115,-125,125,125,125,D,Raw,F,Open,
1,Justyna Grzeszczyk,1986,Tapkowice,56,55.1,,,,,-100,110,120,120,120,D,Raw,F,Open,
1,Angelika Mroczek,1996,Piasek,67.5,65.9,,,,,90,-95,-95,90,90,D,Raw,F,Open,
1,Amelia Mariańska,2000,Szczytno,75,69.4,,,,,110,-120,125,125,125,D,Raw,F,Open,
2,Agata Ceranowska,1996,Łódź,75,73,,,,,120,-130,-130,120,120,D,Raw,F,Open,
1,Oktawia Lurka,1990,Rzeszów,90,88.4,,,,,215,225,-245,225,225,D,Raw,F,Open,
2,Sabina Oleksy,1981,Opole,90,83.1,,,,,120,130,135,135,135,D,Raw,F,Open,
1,Klaudia Madeja,2000,Wrocław,48,45.1,,,,,115,-125,125,125,125,D,Raw,F,Juniors 20-23,
2,Amelia Mariańska,2000,Szczytno,75,69.4,,,,,110,-120,125,125,125,D,Raw,F,Juniors 20-23,
1,Sabina Oleksy,1981,Opole,90,83.1,,,,,120,130,135,135,135,D,Raw,F,Masters 40-49,
1,Mateusz Wójtowicz,1994,Siedlce,75,74.6,,,,,220,232.5,245,245,245,D,Raw,M,Open,
2,Patryk Witczak,1999,Sieradz,75,73,,,,,180,195,200,200,200,D,Raw,M,Open,
3,Sebastian Bogdan,2001,Hajnówka,75,74.4,,,,,180,190,-200,190,190,D,Raw,M,Open,
1,Mateusz Filipski,1993,Katowice,82.5,81.3,,,,,-255,260,-270,260,260,D,Raw,M,Open,
2,Jacek Bedryj,1983,Racibórz,82.5,82,,,,,215,225,-232.5,225,225,D,Raw,M,Open,
3,Wiktor Ciachera,1996,Poznań,82.5,78,,,,,180,200,-220,200,200,D,Raw,M,Open,
1,Marcin Cichy,1996,Jawor,90,89.2,,,,,250,-270,-300,250,250,D,Raw,M,Open,
1,Jan Łopusiewicz,1999,Wrocław,100,98.6,,,,,270,285,-300,285,285,D,Raw,M,Open,
2,Andrzej Stęcel,1989,Budziszów Wielki,100,93,,,,,230,250,260,260,260,D,Raw,M,Open,
3,Cezary Białacki,1986,Gliwice,100,96.2,,,,,220,-232.5,-232.5,220,220,D,Raw,M,Open,
1,Przemysław Rybacki,1985,Hadra,110,110,,,,,250,-270,-270,250,250,D,Raw,M,Open,
1,Adam Gembarski,1992,Wałcz,125,122.4,,,,,300,320,-335,320,320,D,Raw,M,Open,
2,Krzysztof Grzemiński,1987,Ciechanów,125,113.6,,,,,240,-250,-250,240,240,D,Raw,M,Open,
3,Krzysztof Turkiewicz,1986,Złotoryja,125,120,,,,,200,222.5,230,230,230,D,Raw,M,Open,
1,Artur Kabza,1990,Wrześni,140,125.5,,,,,315,330,,330,330,D,Raw,M,Open,
2,Mariusz Żebrowski,1978,Mińsk Mazowiecki,140,131.7,,,,,280,300,320,320,320,D,Raw,M,Open,
1,Michał Kotlewski,1981,Grudziądz,140+,146,,,,,260,280,285,285,285,D,Raw,M,Open,
2,Dawid Olkiewicz,1994,Gorzow Wielkopolski,140+,157,,,,,280,-290,-290,280,280,D,Raw,M,Open,
1,Jan Łopusiewicz,1999,Wrocław,100,98.6,,,,,270,285,-300,285,285,D,Raw,M,Juniors 20-23,
2,Patryk Witczak,1999,Sieradz,75,73,,,,,180,195,200,200,200,D,Raw,M,Juniors 20-23,
3,Sebastian Bogdan,2001,Hajnówka,75,74.4,,,,,180,190,-200,190,190,D,Raw,M,Juniors 20-23,
1,Mariusz Żebrowski,1978,Mińsk Mazowiecki,140,131.7,,,,,280,300,320,320,320,D,Raw,M,Masters 40-49,
2,Michał Kotlewski,1981,Grudziądz,140+,146,,,,,260,280,285,285,285,D,Raw,M,Masters 40-49,
1,Klaudia Madeja,2000,Wrocław,48,45.1,,,,,115,-125,125,125,125,D,Raw,F,Open,
1,Paulina Szołtysik,1998,Strzebin,52,51.3,,,,,100,110,-115,110,110,D,Raw,F,Open,
1,Wiktoria Farbotko,2006,Bolesławiec,56,55.6,,,,,-75,75,82.5,82.5,82.5,D,Raw,F,Open,
1,Zuzana Jędraszczyk,2001,Łódź,60,57.8,,,,,-140,-150,150,150,150,D,Raw,F,Open,
2,Elżbieta Kardaś,1999,Czarny Dunajec,60,59.3,,,,,120,130,145,145,145,D,Raw,F,Open,
3,Joanna Jaroszewicz,1987,Świdnica,60,58.9,,,,,127.5,135,142.5,142.5,142.5,D,Raw,F,Open,
1,Angelika Suwalska,1993,Karpacz,67.5,66.6,,,,,160,167.5,170,170,170,D,Raw,F,Open,
2,Dominika Sanowska,1996,Myślenice,67.5,63.4,,,,,140,145,150,150,150,D,Raw,F,Open,
3,Agata Kwiatkowska,1996,Gdańsk,67.5,63.3,,,,,137.5,-142.5,-145,137.5,137.5,D,Raw,F,Open,
4,Ewa Niśkiewicz,1982,Gliwice,67.5,66.5,,,,,120,-130,130,130,130,D,Raw,F,Open,
5,Sonia Kasierot,1997,Kamienica,67.5,65.7,,,,,100,110,115,115,115,D,Raw,F,Open,
6,Angelika Mroczek,1996,Piasek,67.5,65.9,,,,,90,-95,-95,90,90,D,Raw,F,Open,
7,Kinga Skura,2005,Hadra,67.5,61.1,,,,,65,75,-85,75,75,D,Raw,F,Open,
DQ,Weronika Obuchowicz,1997,Bydgoszcz,67.5,63.1,,,,,-195,-195,-197.5,,,D,Raw,F,Open,
1,Barbara Bajerek,1996,Kraków,75,72.9,,,,,110,115,120,120,120,D,Raw,F,Open,
2,Agata Ceranowska,1996,Łódź,75,73,,,,,120,-130,-130,120,120,D,Raw,F,Open,
3,Małgorzata Meronk,1959,Gdynia,75,70.8,,,,,90,-95,-100,90,90,D,Raw,F,Open,
DQ,Dominika Filipowska,2002,Wschowa,75,67.8,,,,,-170,-170,-182.5,,,D,Raw,F,Open,
1,Marzena Wierzbicka,1989,Wschowa,82.5,80.7,,,,,225,240,250,250,250,D,Raw,F,Open,
2,Karolina Sobolewska,1987,Wałbrzych,82.5,81.3,,,,,-180,185,190,190,190,D,Raw,F,Open,
3,Renata Zapała,1994,Czarny Dunajec,82.5,79.7,,,,,120,130,-135,130,130,D,Raw,F,Open,
1,Oktawia Lurka,1990,Rzeszów,90,88.4,,,,,215,225,-245,225,225,D,Raw,F,Open,
1,Magdalena Plewa,1997,Gdynia,90+,96.2,,,,,120,125,-130,125,125,D,Raw,F,Open,
1,Wiktoria Farbotko,2006,Bolesławiec,56,55.6,,,,,-75,75,82.5,82.5,82.5,D,Raw,F,Teen 14-16,
2,Kinga Skura,2005,Hadra,67.5,61.1,,,,,65,75,-85,75,75,D,Raw,F,Teen 14-16,
1,Klaudia Madeja,2000,Wrocław,48,45.1,,,,,115,-125,125,125,125,D,Raw,F,Juniors 20-23,
2,Zuzana Jędraszczyk,2001,Łódź,60,57.8,,,,,-140,-150,150,150,150,D,Raw,F,Juniors 20-23,
3,Elżbieta Kardaś,1999,Czarny Dunajec,60,59.3,,,,,120,130,145,145,145,D,Raw,F,Juniors 20-23,
4,Paulina Szołtysik,1998,Strzebin,52,51.3,,,,,100,110,-115,110,110,D,Raw,F,Juniors 20-23,
1,Małgorzata Meronk,1959,Gdynia,75,70.8,,,,,90,-95,-100,90,90,D,Raw,F,Masters 60-69,
1,Radosław Bober,2004,Czarny Dunajec,60,60,,,,,140,150,160,160,160,D,Raw,M,Open,
1,Dominik Szczebak,1997,Wrocław,67.5,65.2,,,,,182.5,192.5,200,200,200,D,Raw,M,Open,
1,Mateusz Wójtowicz,1994,Siedlce,75,74.6,,,,,220,232.5,245,245,245,D,Raw,M,Open,
2,Kostiantyn Kovalenko,1990,Wrocław,75,73.6,,,,,200,210,215,215,215,D,Raw,M,Open,
3,Mikołaj Szafraniec,2002,Zakliczyn,75,71.6,,,,,175,192.5,205,205,205,D,Raw,M,Open,
4,Maciej Dobrzyński,1991,Nowy Dwór Gdański,75,72.4,,,,,190,200,205,205,205,D,Raw,M,Open,
5,Adrian Wierzbicki,1993,Złotoryja,75,74,,,,,205,-215,-215,205,205,D,Raw,M,Open,
6,Jakub Jarończyk,2005,Czarny Dunajec,75,73.9,,,,,165,180,-192.5,180,180,D,Raw,M,Open,
7,Robert Glanc,1992,Strzebin,75,72.1,,,,,150,155,-160,155,155,D,Raw,M,Open,
DQ,Damian Lisowik,1990,Bolesławiec,75,73.9,,,,,-145,-145,-145,,,D,Raw,M,Open,
1,Tomasz Borowczyk,1988,Głogów,82.5,81.7,,,,,270,-280,280,280,280,D,Raw,M,Open,
2,Mateusz Filipski,1993,Katowice,82.5,81.3,,,,,-255,260,-270,260,260,D,Raw,M,Open,
3,Bartłomiej Szaflarski,1990,Czrny Dunajec,82.5,79.4,,,,,225,-250,-250,225,225,D,Raw,M,Open,
4,Paweł Małecki,1992,Oświęcim,82.5,79,,,,,195,207.5,215,215,215,D,Raw,M,Open,
5,Mikołaj Gerus,1998,Świdnica,82.5,79.5,,,,,185,195,212.5,212.5,212.5,D,Raw,M,Open,
6,Kacper Zwierz,1999,Maruszyna,82.5,80.1,,,,,190,200,-205,200,200,D,Raw,M,Open,
7,Gracjan Brzeziński,2005,Bydgoszcz,82.5,81.6,,,,,170,-190,190,190,190,D,Raw,M,Open,
DQ,Arkadiusz Winiarczyk,2003,Przemyśl,82.5,78.3,,,,,-105,-105,-105,,,D,Raw,M,Open,
1,Michał Pająk,1995,Łódź,90,89.2,,,,,275,292.5,-302.5,292.5,292.5,D,Raw,M,Open,
2,Robert Kostecki,1982,Myślenice,90,88.4,,,,,260,275,280,280,280,D,Raw,M,Open,
3,Mateusz Rufkiewicz,1988,Drawsko Pomorskie,90,88.9,,,,,255,275,277.5,277.5,277.5,D,Raw,M,Open,
4,Mariusz Marszalik,1995,Myślenice,90,88.2,,,,,245,255,-265,255,255,D,Raw,M,Open,
5,Michał Wasilewski,1996,Wrocław,90,90,,,,,210,220,230,230,230,D,Raw,M,Open,
6,Kacper Kłaptocz,2003,Zawadzkie,90,82.8,,,,,-210,215,225,225,225,D,Raw,M,Open,
7,Tomasz Zioło,2003,Karpacz,90,87.1,,,,,195,205,212.5,212.5,212.5,D,Raw,M,Open,
1,Bartosz Zaik,1985,Katowice,100,99.5,,,,,295,-310,322.5,322.5,322.5,D,Raw,M,Open,
2,Kacper Uszakiewicz,1988,Słubice,100,95.6,,,,,290,310,-320,310,310,D,Raw,M,Open,
3,Kacper Wawrzyniak,2001,Kostrzyn Nad Odrą,100,93.2,,,,,270,285,-300,285,285,D,Raw,M,Open,
4,Michał Podyma,1979,Jaworzno,100,99.1,,,,,240,250,262.5,262.5,262.5,D,Raw,M,Open,
5,Andrzej Stęcel,1989,Budziszów Wielki,100,93,,,,,230,250,260,260,260,D,Raw,M,Open,
6,Marcin Oleksy,1981,Opole,100,95.6,,,,,260,-275,-275,260,260,D,Raw,M,Open,
7,Mateusz Surowiec,2002,Wschowa,100,94.2,,,,,215,235,242.5,242.5,242.5,D,Raw,M,Open,
8,Artur Hatala,1997,Świdnica,100,98,,,,,240,-250,-250,240,240,D,Raw,M,Open,
1,Krzysztof Wierzbicki,1990,Wschowa,110,104.3,,,,,420,447.5,,447.5,447.5,D,Raw,M,Open,
2,Damian Głuchowski,1993,Wałcz,110,108.4,,,,,270,280,300,300,300,D,Raw,M,Open,
3,Kajetan Nakonieczny,2000,Gdynia,110,108.8,,,,,275,290,-305,290,290,D,Raw,M,Open,
4,Przemysław Rybacki,1985,Hadra,110,110,,,,,250,-270,-270,250,250,D,Raw,M,Open,
5,Józef Sokołowski,1955,Świdwin - Smardzko,110,106.8,,,,,230,,,230,230,D,Raw,M,Open,
6,Mirosław Janeczek,1992,Zubrzyca Górna,110,108.9,,,,,200,215,225,225,225,D,Raw,M,Open,
7,Mateusz Wołowicz,1996,Góra,110,102.3,,,,,210,-230,-237.5,210,210,D,Raw,M,Open,
DQ,Mariusz Bartołowicz,1979,Ciechanów,110,109.3,,,,,-300,-300,-300,,,D,Raw,M,Open,
1,Dawid Kudłaty,1996,Wojciechowice,125,118.1,,,,,320,340,-350,340,340,D,Raw,M,Open,
2,Rafał Wójcik,1987,Skawina,125,119.1,,,,,320,332.5,-342.5,332.5,332.5,D,Raw,M,Open,
3,Mateusz Wrzesiński,1993,Bydgoszcz,125,110.5,,,,,300,320,-330,320,320,D,Raw,M,Open,
4,Adam Gembarski,1992,Wałcz,125,122.4,,,,,300,320,-335,320,320,D,Raw,M,Open,
5,Patryk Brzestowski,1997,Stężyca,125,112.2,,,,,280,-300,300,300,300,D,Raw,M,Open,
6,Mariusz Cichocki,1977,Legnica,125,121.7,,,,,282.5,290,-295,290,290,D,Raw,M,Open,
7,Robert Nemś,1969,Czarny Dunajec,125,118.5,,,,,240,260,280,280,280,D,Raw,M,Open,
8,Dariusz Kopczyński,1980,Sopot,125,111,,,,,265,275,-285,275,275,D,Raw,M,Open,
9,Paweł Minta,1996,Góra,125,118.9,,,,,230,250,262.5,262.5,262.5,D,Raw,M,Open,
10,Rafał Klauz,1971,Lubsko,125,113.2,,,,,220,240,-255,240,240,D,Raw,M,Open,
11,Krzysztof Grzemiński,1987,Ciechanów,125,113.6,,,,,240,-250,-250,240,240,D,Raw,M,Open,
12,Krzysztof Turkiewicz,1986,Złotoryja,125,120,,,,,200,222.5,230,230,230,D,Raw,M,Open,
DQ,Robert Drozdowski,1979,Łopacin,125,123.3,,,,,-280,,,,,D,Raw,M,Open,
1,Szymon Wójtowicz,1994,Szczytno,140,139.8,,,,,335,-350,-360,335,335,D,Raw,M,Open,
2,Mariusz Żebrowski,1978,Mińsk Mazowiecki,140,131.7,,,,,280,300,320,320,320,D,Raw,M,Open,
3,Krzysztof Sauter,1992,Pabianice,140,130.5,,,,,280,305,-320,305,305,D,Raw,M,Open,
4,Arkadiusz Jasiński,1988,Gdańsk,140,127.8,,,,,275,-287.5,-287.5,275,275,D,Raw,M,Open,
1,Mateusz Pawlikowski,1992,Wrocław,140+,140.1,,,,,320,335,-350,335,335,D,Raw,M,Open,
2,Maciej Zaborowski,1987,Klukowa Huta,140+,144.3,,,,,270,290,305,305,305,D,Raw,M,Open,
3,Michał Kotlewski,1981,Grudziądz,140+,146,,,,,260,280,285,285,285,D,Raw,M,Open,
4,Dawid Olkiewicz,1994,Gorzow Wielkopolski,140+,157,,,,,280,-290,-290,280,280,D,Raw,M,Open,
1,Jakub Jarończyk,2005,Czarny Dunajec,75,73.9,,,,,165,180,-192.5,180,180,D,Raw,M,Teen 14-16,
2,Gracjan Brzeziński,2005,Bydgoszcz,82.5,81.6,,,,,170,-190,190,190,190,D,Raw,M,Teen 14-16,
1,Mateusz Surowiec,2002,Wschowa,100,94.2,,,,,215,235,242.5,242.5,242.5,D,Raw,M,Sub-Juniors 17-19,
2,Mikołaj Szafraniec,2002,Zakliczyn,75,71.6,,,,,175,192.5,205,205,205,D,Raw,M,Sub-Juniors 17-19,
3,Kacper Kłaptocz,2003,Zawadzkie,90,82.8,,,,,-210,215,225,225,225,D,Raw,M,Sub-Juniors 17-19,
4,Tomasz Zioło,2003,Karpacz,90,87.1,,,,,195,205,212.5,212.5,212.5,D,Raw,M,Sub-Juniors 17-19,
5,Radosław Bober,2004,Czarny Dunajec,60,60,,,,,140,150,160,160,160,D,Raw,M,Sub-Juniors 17-19,
DQ,Arkadiusz Winiarczyk,2003,Przemyśl,82.5,78.3,,,,,-105,-105,-105,,,D,Raw,M,Sub-Juniors 17-19,
1,Kacper Wawrzyniak,2001,Kostrzyn Nad Odrą,100,93.2,,,,,270,285,-300,285,285,D,Raw,M,Juniors 20-23,
2,Kajetan Nakonieczny,2000,Gdynia,110,108.8,,,,,275,290,-305,290,290,D,Raw,M,Juniors 20-23,
3,Mikołaj Gerus,1998,Świdnica,82.5,79.5,,,,,185,195,212.5,212.5,212.5,D,Raw,M,Juniors 20-23,
4,Kacper Zwierz,1999,Maruszyna,82.5,80.1,,,,,190,200,-205,200,200,D,Raw,M,Juniors 20-23,
1,Mariusz Żebrowski,1978,Mińsk Mazowiecki,140,131.7,,,,,280,300,320,320,320,D,Raw,M,Masters 40-49,
2,Mariusz Cichocki,1977,Legnica,125,121.7,,,,,282.5,290,-295,290,290,D,Raw,M,Masters 40-49,
3,Dariusz Kopczyński,1980,Sopot,125,111,,,,,265,275,-285,275,275,D,Raw,M,Masters 40-49,
4,Marcin Oleksy,1981,Opole,100,95.6,,,,,260,-275,-275,260,260,D,Raw,M,Masters 40-49,
5,Michał Podyma,1979,Jaworzno,100,99.1,,,,,240,250,262.5,262.5,262.5,D,Raw,M,Masters 40-49,
6,Michał Kotlewski,1981,Grudziądz,140+,146,,,,,260,280,285,285,285,D,Raw,M,Masters 40-49,
DQ,Robert Drozdowski,1979,Łopacin,125,123.3,,,,,-280,,,,,D,Raw,M,Masters 40-49,
DQ,Mariusz Bartołowicz,1979,Ciechanów,110,109.3,,,,,-300,-300,-300,,,D,Raw,M,Masters 40-49,
1,Robert Nemś,1969,Czarny Dunajec,125,118.5,,,,,240,260,280,280,280,D,Raw,M,Masters 50-59,
2,Rafał Klauz,1971,Lubsko,125,113.2,,,,,220,240,-255,240,240,D,Raw,M,Masters 50-59,
1,Józef Sokołowski,1955,Świdwin - Smardzko,110,106.8,,,,,230,,,230,230,D,Raw,M,Masters 60-69,
