Division,WeightClassKg,Place,Name,Team,BodyweightKg,Best3SquatKg,Best3BenchKg,Best3DeadliftKg,TotalKg,Equipment,Event,Sex
Boys,55.79,1,Jonathan Luna,Tulia,51.8,136.08,90.72,151.95,378.75,Single-ply,SBD,M
Boys,55.79,2,Jordan Ruiz,Seagraves,51.89,122.47,86.18,158.76,367.41,Single-ply,SBD,M
Boys,51.71,3,Zack Sherrod,Anton,50.89,127.01,74.84,129.27,331.12,Single-ply,SBD,M
Boys,51.71,4,Ivan Antuna,Plainview,49.44,115.67,70.31,138.35,324.32,Single-ply,SBD,M
Boys,51.71,5,Carlos Raya,Plainview,49.44,104.33,72.57,104.33,281.23,Single-ply,SBD,M
Boys,51.71,6,Erik Gomez,Post,45.54,88.45,43.09,97.52,229.06,Single-ply,SBD,M
Boys,51.71,7,Jonathan Hernandez,Lamesa,48.81,77.11,47.63,88.45,213.19,Single-ply,SBD,M
Boys,51.71,8,Efren Miranda,Levelland,51.71,70.31,40.82,102.06,213.19,Single-ply,SBD,M
Boys,51.71,9,Michael Allen,Odessa Permian,44.72,65.77,34.02,79.38,179.17,Single-ply,SBD,M
Boys,51.71,DQ,Hayden Belongia,Post,50.98,,,,,Single-ply,SBD,M
Boys,55.79,1,Gabe Garcia,Midland,55.61,145.15,86.18,174.63,405.97,Single-ply,SBD,M
Boys,55.79,2,Joseph Campos,Midland,54.61,136.08,70.31,149.69,356.07,Single-ply,SBD,M
Boys,59.87,3,Wesley Payton,Lamesa,55.97,117.93,72.57,145.15,335.66,Single-ply,SBD,M
Boys,55.79,4,Christian Perez,Post,54.16,138.35,65.77,124.74,328.85,Single-ply,SBD,M
Boys,59.87,5,Austin Marmelejo,Lubbock Monterey,55.97,115.67,70.31,131.54,317.51,Single-ply,SBD,M
Boys,55.79,6,Zach Sanchez,Levelland,55.7,111.13,68.04,120.2,299.37,Single-ply,SBD,M
Boys,55.79,7,Michael Lopez,Seagraves,55.79,113.4,54.43,129.27,297.1,Single-ply,SBD,M
Boys,55.79,8,Collin Simmons,Odessa Permian,52.89,102.06,58.97,104.33,265.35,Single-ply,SBD,M
Boys,55.79,9,Noah Del Toro,Muleshoe,53.8,88.45,52.16,113.4,254.01,Single-ply,SBD,M
Boys,55.79,DQ,Jj Barrera,Tulia,55.79,,,,,Single-ply,SBD,M
Boys,59.87,1,Pablo Hinojosa,Lamesa,59.6,172.37,92.99,174.63,439.98,Single-ply,SBD,M
Boys,59.87,2,Dimas Rodriguez,Plainview,59.87,158.76,97.52,158.76,415.04,Single-ply,SBD,M
Boys,67.13,3,Jesse Gonzales,Levelland,60.06,136.08,102.06,138.35,376.48,Single-ply,SBD,M
Boys,67.13,4,Nic Cruz,Tulia,60.06,92.99,90.72,145.15,328.85,Single-ply,SBD,M
Boys,59.87,5,Eli Rodriguez,Seagraves,59.33,117.93,68.04,136.08,322.05,Single-ply,SBD,M
Boys,59.87,6,Cameron Hurd,Midland,59.51,113.4,54.43,122.47,290.3,Single-ply,SBD,M
Boys,59.87,7,Jake Spruiell,Levelland,59.24,79.38,68.04,133.81,281.23,Single-ply,SBD,M
Boys,59.87,8,Tyler Strader,Muleshoe,59.51,102.06,47.63,111.13,260.82,Single-ply,SBD,M
Boys,67.13,9,Kevin Fehr,Wolfforth Frenship,59.96,79.38,52.16,111.13,242.67,Single-ply,SBD,M
Boys,59.87,DQ,Miguel Cardenas,Lubbock Monterey,59.87,,,,,Single-ply,SBD,M
Boys,67.13,1,Thomas Garcia,Midland,66.22,181.44,106.59,183.7,471.74,Single-ply,SBD,M
Boys,67.13,2,Karlonte Jackson,Anton,67.13,199.58,77.11,192.78,469.47,Single-ply,SBD,M
Boys,74.84,3,Broc Harris,Tulia,67.31,167.83,88.45,206.38,462.66,Single-ply,SBD,M
Boys,67.13,4,DJ Brown,Post,62.87,165.56,106.59,183.7,455.86,Single-ply,SBD,M
Boys,67.13,5,Cullen Holt,Plainview,66.68,165.56,99.79,165.56,430.91,Single-ply,SBD,M
Boys,67.13,6,Elliot Hanna,Levelland,66.5,165.56,108.86,149.69,424.11,Single-ply,SBD,M
Boys,67.13,7,Matthew Guajardo,Levelland,66.68,147.42,88.45,170.1,405.97,Single-ply,SBD,M
Boys,74.84,8,Eric Vega,Plainview,67.31,145.15,81.65,174.63,401.43,Single-ply,SBD,M
Boys,67.13,9,David Denton,Wolfforth Frenship,67.13,154.22,81.65,158.76,394.63,Single-ply,SBD,M
Boys,74.84,10,Marcus Ruff,Whiteface,67.31,158.76,68.04,158.76,385.55,Single-ply,SBD,M
Boys,67.13,11,Eli Saldana,Lubbock Monterey,63.23,147.42,83.91,145.15,376.48,Single-ply,SBD,M
Boys,67.13,12,Alan Alaniz,Post,67.13,115.67,92.99,156.49,365.14,Single-ply,SBD,M
Boys,67.13,13,Isaiah Mora,Odessa Permian,65.68,129.27,90.72,136.08,356.07,Single-ply,SBD,M
Boys,67.13,14,Nathan Luna,Plainview,65.59,138.35,77.11,138.35,353.8,Single-ply,SBD,M
Boys,67.13,15,Darrion Kumm,Wolfforth Frenship,62.41,120.2,74.84,149.69,344.73,Single-ply,SBD,M
Boys,67.13,16,Reed Jones,Odessa Permian,65.32,117.93,83.91,136.08,337.93,Single-ply,SBD,M
Boys,67.13,17,Paul Perez #3,Levelland,66.68,115.67,81.65,136.08,333.39,Single-ply,SBD,M
Boys,67.13,18,Mitchell Monk,Levelland,66.22,97.52,72.57,149.69,319.78,Single-ply,SBD,M
Boys,67.13,19,Alejo Rodriguez,Post,61.14,106.59,72.57,136.08,315.25,Single-ply,SBD,M
Boys,67.13,20,Mason Kelm,Odessa Permian,64.05,122.47,68.04,113.4,303.91,Single-ply,SBD,M
Boys,67.13,21,Tyler Kelm,Odessa Permian,66.04,122.47,77.11,92.99,292.57,Single-ply,SBD,M
Boys,67.13,22,Chad Wisdom,Levelland,66.13,83.91,97.52,111.13,292.57,Single-ply,SBD,M
Boys,74.84,DQ,Juan Losoya,Midland,67.31,185.97,,,,Single-ply,SBD,M
Boys,74.84,DQ,Riley Justice,Midland Lee,67.22,142.88,,,,Single-ply,SBD,M
Boys,67.13,DQ,Magoo Grimaldo,Lubbock Monterey,67.13,,,,,Single-ply,SBD,M
Boys,67.13,DQ,Levi Wright,Slaton,65.77,,,,,Single-ply,SBD,M
Boys,74.84,1,Noah DiSalvo,Plainview,74.57,176.9,102.06,195.04,474,Single-ply,SBD,M
Boys,74.84,2,Daravion Williams,Midland Lee,74.03,183.7,90.72,195.04,469.47,Single-ply,SBD,M
Boys,74.84,3,Ivan Melendez,Midland,74.21,163.29,97.52,197.31,458.13,Single-ply,SBD,M
Boys,74.84,4,Xzavier Martinez,Midland,69.85,167.83,104.33,181.44,453.59,Single-ply,SBD,M
Boys,74.84,5,Kodie Ochoa,Midland,71.3,147.42,102.06,183.7,433.18,Single-ply,SBD,M
Boys,82.1,6,Tony Rivas,Plainview,74.93,170.1,99.79,163.29,433.18,Single-ply,SBD,M
Boys,74.84,7,Isaiah Carrasco,Plainview,72.03,156.49,102.06,170.1,428.64,Single-ply,SBD,M
Boys,74.84,8,Dillon Stevens,Wolfforth Frenship,69.58,158.76,95.25,170.1,424.11,Single-ply,SBD,M
Boys,74.84,9,Caden Dean,Post,74.66,156.49,115.67,151.95,424.11,Single-ply,SBD,M
Boys,74.84,10,Larnce Hicks,Denver City,70.49,142.88,111.13,167.83,421.84,Single-ply,SBD,M
Boys,74.84,11,Chris Bell,Midland Lee,73.66,158.76,86.18,161.03,405.97,Single-ply,SBD,M
Boys,74.84,12,Manuel Quezada,Plains,67.4,142.88,90.72,158.76,392.36,Single-ply,SBD,M
Boys,74.84,13,Preston Woodard,Levelland,74.12,158.76,83.91,147.42,390.09,Single-ply,SBD,M
Boys,74.84,14,Trenton Jones,Odessa Permian,74.66,127.01,102.06,158.76,387.82,Single-ply,SBD,M
Boys,74.84,15,Cain Abalos,Midland Lee,70.31,136.08,79.38,158.76,374.21,Single-ply,SBD,M
Boys,74.84,16,Trenton Jones,Levelland,69.58,145.15,81.65,145.15,371.95,Single-ply,SBD,M
Boys,74.84,17,Nick Koontz,Slaton,71.03,142.88,77.11,145.15,365.14,Single-ply,SBD,M
Boys,74.84,18,Andres Vasquez,Levelland,67.59,136.08,83.91,138.35,358.34,Single-ply,SBD,M
Boys,74.84,19,Angel Cantu,Levelland,68.63,129.27,83.91,142.88,356.07,Single-ply,SBD,M
Boys,74.84,20,Ruben Garcia,Denver City,74.3,140.61,68.04,133.81,342.46,Single-ply,SBD,M
Boys,74.84,21,Caleb McDaniel,Wolfforth Frenship,74.66,95.25,61.23,108.86,265.35,Single-ply,SBD,M
Boys,74.84,22,Rayce Dorsey,Odessa Permian,71.03,102.06,63.5,83.91,249.48,Single-ply,SBD,M
Boys,74.84,DQ,Juan Pando,Anton,74.84,,,,,Single-ply,SBD,M
Boys,74.84,DQ,Brandon Sutton,Snyder,73.66,102.06,,,,Single-ply,SBD,M
Boys,74.84,DQ,Christian Herrera,Denver City,74.84,,,,,Single-ply,SBD,M
Boys,74.84,DQ,Andrew Phillips,Lubbock Monterey,74.84,,,,,Single-ply,SBD,M
Boys,74.84,DQ,Merrit Crump,Plains,74.84,,,,,Single-ply,SBD,M
Boys,74.84,DQ,Laz Escobar,Plains,74.84,,,,,Single-ply,SBD,M
Boys,82.1,1,Adrian Gonzales,Plainview,82.1,204.12,124.74,222.26,551.11,Single-ply,SBD,M
Boys,82.1,2,Luis Juarez,Midland,79.11,206.38,111.13,213.19,530.7,Single-ply,SBD,M
Boys,82.1,3,Phillip Fuentes,Midland,78.93,204.12,97.52,208.65,510.29,Single-ply,SBD,M
Boys,82.1,4,Domingo Saucedo,Plainview,79.02,192.78,111.13,190.51,494.42,Single-ply,SBD,M
Boys,82.1,5,Aaron Chavarria,Floydada,79.74,195.04,111.13,185.97,492.15,Single-ply,SBD,M
Boys,82.1,6,Brandon Jackson,Tulia,79.92,181.44,113.4,190.51,485.34,Single-ply,SBD,M
Boys,82.1,7,DruMarcus Austin,Midland Lee,77.56,188.24,95.25,190.51,474,Single-ply,SBD,M
Boys,82.1,8,Isaiah Gonzales,Plainview,80.47,204.12,95.25,170.1,469.47,Single-ply,SBD,M
Boys,82.1,9,Andrew Mendez,Wolfforth Frenship,82.1,163.29,97.52,188.24,449.06,Single-ply,SBD,M
Boys,82.1,10,Cade McCallie,Canyon,77.75,156.49,90.72,167.83,415.04,Single-ply,SBD,M
Boys,82.1,11,David Montiel,Anton,82.01,140.61,95.25,176.9,412.77,Single-ply,SBD,M
Boys,82.1,12,Kain Alexander,Levelland,80.83,154.22,95.25,158.76,408.23,Single-ply,SBD,M
Boys,82.1,13,Coleman Townsend,Plainview,81.47,163.29,77.11,156.49,396.89,Single-ply,SBD,M
Boys,82.1,14,Michael Deanda,Lamesa,80.47,151.95,79.38,142.88,374.21,Single-ply,SBD,M
Boys,89.81,15,Alfonzo Rubio,Anton,82.28,158.76,81.65,117.93,358.34,Single-ply,SBD,M
Boys,82.1,16,Marcial Salinas,Slaton,79.38,124.74,74.84,138.35,337.93,Single-ply,SBD,M
Boys,82.1,17,James Hill,Tulia,80.83,124.74,70.31,142.88,337.93,Single-ply,SBD,M
Boys,82.1,18,Logan Falkenbury,Whiteface,76.66,102.06,52.16,113.4,267.62,Single-ply,SBD,M
Boys,82.1,DQ,Kody Duncan,Levelland,75.34,145.15,,,,Single-ply,SBD,M
Boys,82.1,DQ,Hayden Brant,Midland Lee,79.56,142.88,,,,Single-ply,SBD,M
Boys,82.1,DQ,Marcus Salinas,Midland,76.38,,,,,Single-ply,SBD,M
Boys,82.1,DQ,Nathan Rodriguez,Levelland,81.28,,,,,Single-ply,SBD,M
Boys,82.1,DQ,Casey Sanders,Wolfforth Frenship,82.1,,,,,Single-ply,SBD,M
Boys,82.1,DQ,Renee Barrera,Tulia,82.1,,,,,Single-ply,SBD,M
Boys,89.81,1,Ozzie Zuniga,Odessa Permian,89.45,215.46,127.01,215.46,557.92,Single-ply,SBD,M
Boys,89.81,2,Aldo Marquez,Plainview,85.28,231.33,113.4,206.38,551.11,Single-ply,SBD,M
Boys,89.81,3,Stetson Casey,Wolfforth Frenship,88.54,199.58,106.59,226.8,532.97,Single-ply,SBD,M
Boys,89.81,4,Lionel Sanchez,Midland,89.36,204.12,102.06,217.72,523.9,Single-ply,SBD,M
Boys,89.81,5,Pedro Garcia,Canyon,88.99,206.38,117.93,197.31,521.63,Single-ply,SBD,M
Boys,89.81,6,Andrew Dunlap,Plainview,85.91,192.78,129.27,197.31,519.36,Single-ply,SBD,M
Boys,89.81,7,Rex Mathis,Floydada,83.28,176.9,113.4,208.65,498.95,Single-ply,SBD,M
Boys,89.81,8,Caleb Morales,Lamesa,86.91,208.65,113.4,167.83,489.88,Single-ply,SBD,M
Boys,89.81,9,Chris Galvan #2,Plainview,87.27,206.38,111.13,172.37,489.88,Single-ply,SBD,M
Boys,89.81,10,Staley Arredondo,Lamesa,85.28,195.04,95.25,188.24,478.54,Single-ply,SBD,M
Boys,89.81,11,Federico Castro,Plainview,84.73,183.7,99.79,185.97,469.47,Single-ply,SBD,M
Boys,89.81,12,Nick Runkles,Levelland,87.82,188.24,113.4,158.76,460.4,Single-ply,SBD,M
Boys,89.81,13,Tanner Vestal,Odessa Permian,86.09,167.83,92.99,192.78,453.59,Single-ply,SBD,M
Boys,89.81,14,Joey Maldonado,Anton,87.45,165.56,92.99,183.7,442.25,Single-ply,SBD,M
Boys,89.81,15,David Gonzales,Odessa Permian,87,165.56,97.52,170.1,433.18,Single-ply,SBD,M
Boys,89.81,16,Travis Baur,Midland,84.55,147.42,88.45,183.7,419.57,Single-ply,SBD,M
Boys,99.79,17,Dago Ortega,Odessa Permian,89.99,129.27,104.33,185.97,419.57,Single-ply,SBD,M
Boys,89.81,18,Audden Salcido,Midland Lee,84.91,147.42,90.72,158.76,396.89,Single-ply,SBD,M
Boys,89.81,19,John Stiles,Muleshoe,89.54,108.86,68.04,136.08,312.98,Single-ply,SBD,M
Boys,89.81,DQ,Matt Garret,Denver City,89.81,,,,,Single-ply,SBD,M
Boys,89.81,DQ,Adan Perez,Denver City,89.81,,,,,Single-ply,SBD,M
Boys,89.81,DQ,Jordan Aguilar,Post,89.81,,,,,Single-ply,SBD,M
Boys,109.77,1,Trae Taylor,Levelland,99.84,272.16,165.56,249.48,687.19,Single-ply,SBD,M
Boys,99.79,2,Shane Smith,Levelland,95.53,213.19,127.01,204.12,544.31,Single-ply,SBD,M
Boys,99.79,3,Eddie Campos,Levelland,99.79,204.12,127.01,181.44,512.56,Single-ply,SBD,M
Boys,99.79,4,Aiden Lopez,Plainview,96.16,188.24,117.93,195.04,501.22,Single-ply,SBD,M
Boys,99.79,5,Angel Ornelas,Plainview,98.43,176.9,122.47,201.85,501.22,Single-ply,SBD,M
Boys,99.79,6,Blake Long,Midland Lee,94.98,192.78,106.59,192.78,492.15,Single-ply,SBD,M
Boys,99.79,7,Matt Foster,Wolfforth Frenship,97.79,204.12,90.72,197.31,492.15,Single-ply,SBD,M
Boys,99.79,8,Paul Childress #2,Lubbock Monterey,98.97,185.97,111.13,181.44,478.54,Single-ply,SBD,M
Boys,99.79,9,Corbin McCullough,Midland,93.8,165.56,129.27,179.17,474,Single-ply,SBD,M
Boys,99.79,10,Brendan Voss,Plainview,95.71,179.17,104.33,181.44,464.93,Single-ply,SBD,M
Boys,99.79,11,Rolando Gutierrez,Seagraves,99.61,181.44,92.99,185.97,460.4,Single-ply,SBD,M
Boys,99.79,12,Phillip Wright,Midland,94.44,163.29,92.99,181.44,437.72,Single-ply,SBD,M
Boys,99.79,13,Alex Maldonado,Anton,97.61,174.63,74.84,181.44,430.91,Single-ply,SBD,M
Boys,99.79,14,Josh Ontiveroz,Odessa Permian,90.36,142.88,104.33,181.44,428.64,Single-ply,SBD,M
Boys,99.79,15,Saul Gallegos,Slaton,90.72,174.63,97.52,154.22,426.38,Single-ply,SBD,M
Boys,99.79,16,Ritchie Carrillo,Anton,97.25,163.29,83.91,170.1,417.3,Single-ply,SBD,M
Boys,99.79,17,Braxton Dodson,Midland Lee,95.07,156.49,92.99,158.76,408.23,Single-ply,SBD,M
Boys,99.79,18,Paul Deleon,Canyon,97.34,151.95,108.86,142.88,403.7,Single-ply,SBD,M
Boys,99.79,19,Ian McInturff,Levelland,99.34,149.69,86.18,167.83,403.7,Single-ply,SBD,M
Boys,99.79,20,Grant Caravelli,Wolfforth Frenship,99.61,149.69,81.65,165.56,396.89,Single-ply,SBD,M
Boys,99.79,21,Matt Cardenas,Wolfforth Frenship,99.61,142.88,111.13,136.08,390.09,Single-ply,SBD,M
Boys,99.79,22,Bobby Taylor,Whiteface,94.08,122.47,86.18,142.88,351.53,Single-ply,SBD,M
Boys,99.79,DQ,Jacob Perez #1,Post,99.79,,,,,Single-ply,SBD,M
Boys,99.79,DQ,Hector Gonzales,Denver City,99.79,,,,,Single-ply,SBD,M
Boys,109.77,1,Angelo Samarripa,Plainview,107.05,288.03,188.24,249.48,725.75,Single-ply,SBD,M
Boys,109.77,2,James Iglesias,Lamesa,107.77,263.08,142.88,249.48,655.44,Single-ply,SBD,M
Boys,109.77,3,Santiago Fabela,Plainview,106.78,244.94,158.76,217.72,621.42,Single-ply,SBD,M
Boys,109.77,4,Avery Rodriguez #4,Odessa Permian,109.32,238.14,131.54,201.85,571.53,Single-ply,SBD,M
Boys,109.77,5,Joseph DeOchoa,Floydada,102.42,206.38,131.54,226.8,564.72,Single-ply,SBD,M
Boys,109.77,6,Charles Hickey,Midland,101.6,238.14,108.86,195.04,542.04,Single-ply,SBD,M
Boys,109.77,7,Dale Diaz,Post,107.23,226.8,129.27,183.7,539.77,Single-ply,SBD,M
Boys,109.77,8,Anthony Montemayor,Lamesa,100.97,226.8,111.13,199.58,537.51,Single-ply,SBD,M
Boys,109.77,9,Chris Thomas,Slaton,107.05,229.06,124.74,183.7,537.51,Single-ply,SBD,M
Boys,109.77,10,Tanner Patterson,Canyon,106.96,204.12,129.27,185.97,519.36,Single-ply,SBD,M
Boys,109.77,11,Landon Weeden,Odessa Permian,100.43,165.56,111.13,183.7,460.4,Single-ply,SBD,M
Boys,109.77,12,Noel Landeros,Lubbock Monterey,103.6,170.1,106.59,183.7,460.4,Single-ply,SBD,M
Boys,109.77,13,Devin Jordan #1,Wolfforth Frenship,107.41,185.97,92.99,170.1,449.06,Single-ply,SBD,M
Boys,109.77,14,Trevor Lee,Lubbock Monterey,104.51,170.1,106.59,170.1,446.79,Single-ply,SBD,M
Boys,109.77,15,Danny Moore,Midland Lee,104.87,158.76,90.72,158.76,408.23,Single-ply,SBD,M
Boys,109.77,16,Aaron Webb,Snyder,109.68,108.86,65.77,115.67,290.3,Single-ply,SBD,M
Boys,109.77,17,Bryce Harris,Odessa Permian,101.33,92.99,70.31,104.33,267.62,Single-ply,SBD,M
Boys,109.77,DQ,Jake Allen #8,Lubbock Monterey,100.24,145.15,,,,Single-ply,SBD,M
Boys,109.77,DQ,Robert Barker,Wolfforth Frenship,109.68,,,,,Single-ply,SBD,M
Boys,124.74,1,Freddie Savage,Wolfforth Frenship,124.47,249.48,149.69,215.46,614.62,Single-ply,SBD,M
Boys,124.74,2,Sergio Vidales,Levelland,124.1,240.4,170.1,190.51,601.01,Single-ply,SBD,M
Boys,124.74,3,Eric Villegas,Midland,111.77,244.94,124.74,210.92,580.6,Single-ply,SBD,M
Boys,124.74,4,Homero Ramirez,Floydada,116.3,199.58,142.88,226.8,569.26,Single-ply,SBD,M
Boys,124.74,5,Jeremy Garza,Snyder,124.56,215.46,136.08,192.78,544.31,Single-ply,SBD,M
Boys,124.74,6,Ceasar Rosalez,Seagraves,111.58,204.12,136.08,190.51,530.7,Single-ply,SBD,M
Boys,124.74,7,Librado Chavarria,Floydada,114.94,226.8,120.2,176.9,523.9,Single-ply,SBD,M
Boys,124.74,8,Charles Hunt,Midland,121.29,197.31,120.2,197.31,514.83,Single-ply,SBD,M
Boys,124.74,9,Michael Howk,Midland,116.03,192.78,108.86,183.7,485.34,Single-ply,SBD,M
Boys,124.74,10,Matt Williams,Midland,110.4,183.7,102.06,183.7,469.47,Single-ply,SBD,M
Boys,124.74,11,Tucker Looney,Canyon,116.03,172.37,113.4,176.9,462.66,Single-ply,SBD,M
Boys,124.74,12,Jordan Medrano,Odessa Permian,113.67,170.1,88.45,165.56,424.11,Single-ply,SBD,M
Boys,124.74,13,O'Shae Grant,Wolfforth Frenship,116.85,165.56,77.11,176.9,419.57,Single-ply,SBD,M
Boys,124.74,14,Reid McIlwain,Lamesa,121.38,154.22,88.45,158.76,401.43,Single-ply,SBD,M
Boys,124.74,15,Aaron Steelman,Snyder,123.56,158.76,90.72,142.88,392.36,Single-ply,SBD,M
Boys,124.74,16,Garrett Greer,Midland Lee,117.48,142.88,92.99,133.81,369.68,Single-ply,SBD,M
Boys,124.74,17,Trevor Vallejo,Canyon,115.67,145.15,79.38,138.35,362.87,Single-ply,SBD,M
Boys,124.74,18,Caydn White,Odessa Permian,115.12,136.08,79.38,136.08,351.53,Single-ply,SBD,M
Boys,124.74,19,ZR Smith,Slaton,119.39,133.81,72.57,138.35,344.73,Single-ply,SBD,M
Boys,124.74,20,Jordan Russell,Muleshoe,111.58,113.4,54.43,124.74,292.57,Single-ply,SBD,M
Boys,124.74,DQ,Lelton Mosely,Midland Lee,118.02,226.8,,,,Single-ply,SBD,M
Boys,124.74,DQ,Victor Perez,Lamesa,110.59,181.44,102.06,,,Single-ply,SBD,M
Boys,124.74,DQ,Nick Irwin,Snyder,111.95,131.54,,,,Single-ply,SBD,M
Boys,124.74,DQ,Ricardo Vidales,Lubbock Monterey,124.74,,,,,Single-ply,SBD,M
Boys,124.74,DQ,Adam Benitez,Lubbock Monterey,124.74,,,,,Single-ply,SBD,M
Boys,124.74+,1,Waylon Roberson,Midland Lee,163.29,285.76,158.76,204.12,648.64,Single-ply,SBD,M
Boys,124.74+,2,Taylor York,Wolfforth Frenship,138.89,249.48,129.27,233.6,612.35,Single-ply,SBD,M
Boys,124.74+,3,Todd Garner,Wolfforth Frenship,131.9,210.92,136.08,204.12,551.11,Single-ply,SBD,M
Boys,124.74+,4,Jordan Copeland,Midland,141.61,215.46,131.54,204.12,551.11,Single-ply,SBD,M
Boys,124.74+,5,Adrian Adame,Midland,141.25,226.8,124.74,192.78,544.31,Single-ply,SBD,M
Boys,124.74+,6,Dominick Puente,Levelland,127.01,181.44,90.72,167.83,439.98,Single-ply,SBD,M
Boys,124.74+,7,Garrett Devault,Midland Lee,126.28,115.67,77.11,129.27,322.05,Single-ply,SBD,M
Boys,124.74+,DQ,Cameron Wesley,Midland,125.1,231.33,129.27,,,Single-ply,SBD,M
Boys,124.74+,DQ,Gerardo Martinez,Plains,125.19,,,,,Single-ply,SBD,M
Boys,124.74+,DQ,Jayme Murdock,Slaton,125.19,,,,,Single-ply,SBD,M
