Division,WeightClassKg,Place,Name,Team,BodyweightKg,Best3SquatKg,Best3BenchKg,Best3DeadliftKg,TotalKg,Equipment,Event,Sex
Boys,51.71,1,Colt Baranowski,Smithville,51.53,145.15,77.11,156.49,378.75,Single-ply,SBD,M
Boys,51.71,2,Roberto Ortiz,Alvarado,50.89,140.61,81.65,129.27,351.53,Single-ply,SBD,M
Boys,51.71,3,Darrian Clark,Lorena,46.27,133.81,70.31,136.08,340.19,Single-ply,SBD,M
Boys,51.71,4,Cameron Sams,Lorena,51.71,131.54,74.84,133.81,340.19,Single-ply,SBD,M
Boys,51.71,5,Isaiah Boyd,Waco Connally,49.71,120.2,72.57,129.27,322.05,Single-ply,SBD,M
Boys,51.71,6,Demetrius Parker,Waco La Vega,47.36,117.93,70.31,113.4,301.64,Single-ply,SBD,M
Boys,51.71,7,Ross Schumacher,Bellville,49.53,120.2,52.16,129.27,301.64,Single-ply,SBD,M
Boys,51.71,8,Oscar Salazar,Waco La Vega,50.17,106.59,54.43,136.08,297.1,Single-ply,SBD,M
Boys,51.71,9,Keegan Mantanona,Salado,50.71,97.52,63.5,111.13,272.16,Single-ply,SBD,M
Boys,51.71,10,Kj Stevens,Lampasas,51.53,104.33,61.23,92.99,258.55,Single-ply,SBD,M
Boys,51.71,NS,Jaret Martinez,Liberty Hill,,,,,,Single-ply,SBD,M
Boys,51.71,DQ,Jonathan Flores,Mexia,51.35,115.67,77.11,,,Single-ply,SBD,M
Boys,55.79,1,Preston Fox,Lampasas,55.07,149.69,102.06,163.29,415.04,Single-ply,SBD,M
Boys,55.79,2,Tucker Klein,Fredericksburg,55.52,133.81,90.72,156.49,381.02,Single-ply,SBD,M
Boys,55.79,3,Luke Keller,Llano,53.52,147.42,77.11,133.81,358.34,Single-ply,SBD,M
Boys,55.79,4,Horacio Huerta,Salado,54.52,136.08,77.11,136.08,349.27,Single-ply,SBD,M
Boys,55.79,5,James Eckford,Liberty Hill,55.79,129.27,83.91,133.81,347,Single-ply,SBD,M
Boys,55.79,6,Hunter McCoy,Burnet,54.7,122.47,74.84,138.35,335.66,Single-ply,SBD,M
Boys,55.79,7,Dylan Charles,Gatesville,55.16,129.27,74.84,113.4,317.51,Single-ply,SBD,M
Boys,55.79,8,JoJo Talavera,Glen Rose,54.52,117.93,61.23,113.4,292.57,Single-ply,SBD,M
Boys,55.79,9,Wesley Norosad,Sealy,54.79,102.06,58.97,127.01,288.03,Single-ply,SBD,M
Boys,55.79,10,Chris Bradley,Mexia,53.43,102.06,52.16,124.74,278.96,Single-ply,SBD,M
Boys,55.79,11,Ariel Pimienta,Mexia,54.79,83.91,58.97,115.67,258.55,Single-ply,SBD,M
Boys,55.79,12,Brennan Vollmer,Fredericksburg,55.79,90.72,56.7,106.59,254.01,Single-ply,SBD,M
Boys,59.87,1,Payton Melchor,Liberty Hill,59.6,170.1,97.52,197.31,464.93,Single-ply,SBD,M
Boys,59.87,2,Ryan Burns,Sealy,58.06,163.29,92.99,185.97,442.25,Single-ply,SBD,M
Boys,59.87,3,Juan Araujo,Taylor,59.51,183.7,83.91,158.76,426.38,Single-ply,SBD,M
Boys,59.87,4,Kyle Arriola,Lampasas,59.42,149.69,97.52,167.83,415.04,Single-ply,SBD,M
Boys,59.87,5,Logan Heller,Mexia,58.79,156.49,90.72,154.22,401.43,Single-ply,SBD,M
Boys,59.87,6,Ethan Rodriguez,Lorena,58.88,147.42,86.18,167.83,401.43,Single-ply,SBD,M
Boys,59.87,7,Gilbert Olguin,Waco Connally,58.06,142.88,97.52,145.15,385.55,Single-ply,SBD,M
Boys,59.87,8,Alex Ansay,Alvarado,58.88,140.61,95.25,145.15,381.02,Single-ply,SBD,M
Boys,59.87,9,Jacob Caldwell,Lorena,59.78,136.08,83.91,154.22,374.21,Single-ply,SBD,M
Boys,59.87,10,Emiliano Olivares,Waco Connally,58.06,142.88,63.5,163.29,369.68,Single-ply,SBD,M
Boys,59.87,11,Kaden Bessent,Brownwood,59.33,136.08,83.91,147.42,367.41,Single-ply,SBD,M
Boys,59.87,12,Jonathan Lopez,Hillsboro,58.97,142.88,81.65,124.74,349.27,Single-ply,SBD,M
Boys,67.13,1,Sergio Watkins,China Spring,63.59,219.99,127.01,201.85,548.85,Single-ply,SBD,M
Boys,67.13,2,Ricardo Alvarez,Alvarado,65.41,219.99,115.67,210.92,546.58,Single-ply,SBD,M
Boys,67.13,3,Stephen Leal,Taylor,65.68,219.99,113.4,201.85,535.24,Single-ply,SBD,M
Boys,67.13,4,Ryan Jackson,Burnet,64.68,192.78,127.01,176.9,496.68,Single-ply,SBD,M
Boys,67.13,5,Devin Jackson,Waco La Vega,65.5,188.24,117.93,181.44,487.61,Single-ply,SBD,M
Boys,67.13,6,Marc Western,Wimberley,66.22,156.49,83.91,181.44,421.84,Single-ply,SBD,M
Boys,67.13,7,Dakota Schramm,Gatesville,64.86,163.29,90.72,163.29,417.3,Single-ply,SBD,M
Boys,67.13,8,Caleb Roberts,Burnet,63.78,161.03,79.38,174.63,415.04,Single-ply,SBD,M
Boys,67.13,9,Jalil Wright,Mexia,63.59,138.35,79.38,165.56,383.29,Single-ply,SBD,M
Boys,67.13,NS,Thomas Powers,Lorena,,,,,,Single-ply,SBD,M
Boys,67.13,NS,Darick Henderson,Navasota,,,,,,Single-ply,SBD,M
Boys,67.13,DQ,Ricardo Martinez #2,Hillsboro,65.68,154.22,,,,Single-ply,SBD,M
Boys,74.84,1,Jack Jerome,Lampasas,70.4,238.14,142.88,208.65,589.67,Single-ply,SBD,M
Boys,74.84,2,Hugh Shelton,Taylor,72.03,215.46,124.74,242.67,582.87,Single-ply,SBD,M
Boys,74.84,3,Remy Wade,Wimberley,73.84,224.53,138.35,206.38,569.26,Single-ply,SBD,M
Boys,74.84,4,Kj Peoples,China Spring,72.57,215.46,138.35,204.12,557.92,Single-ply,SBD,M
Boys,74.84,5,Case Brister,Lampasas,74.39,204.12,113.4,199.58,517.1,Single-ply,SBD,M
Boys,74.84,6,Hunter Turk,Salado,74.12,206.38,111.13,183.7,501.22,Single-ply,SBD,M
Boys,74.84,7,Caden Logan,Alvarado,72.94,195.04,122.47,181.44,498.95,Single-ply,SBD,M
Boys,74.84,8,Marcos Meza,Hillsboro,69.94,206.38,97.52,190.51,494.42,Single-ply,SBD,M
Boys,74.84,9,Daniel Cobia,Smithville,74.66,190.51,111.13,181.44,483.08,Single-ply,SBD,M
Boys,74.84,10,Koby Allen,Lampasas,72.94,183.7,113.4,181.44,478.54,Single-ply,SBD,M
Boys,74.84,11,Gustavo Vital,Sealy,73.94,181.44,111.13,172.37,464.93,Single-ply,SBD,M
Boys,74.84,12,Clay Padgett,Smithville,71.67,190.51,102.06,163.29,455.86,Single-ply,SBD,M
Boys,82.1,1,Christian Yannis,Taylor,80.65,240.4,142.88,222.26,605.55,Single-ply,SBD,M
Boys,82.1,2,Carson Ford,Lorena,79.2,226.8,136.08,233.6,596.47,Single-ply,SBD,M
Boys,82.1,3,Joshua Handley,Fredericksburg,78.56,215.46,140.61,226.8,582.87,Single-ply,SBD,M
Boys,82.1,4,Jordan Morgan,Waco La Vega,80.92,226.8,120.2,217.72,564.72,Single-ply,SBD,M
Boys,82.1,5,Jacob Bandera,Smithville,82.1,235.87,122.47,206.38,564.72,Single-ply,SBD,M
Boys,82.1,6,Wayne Rinn,Bellville,80.56,226.8,136.08,192.78,555.65,Single-ply,SBD,M
Boys,82.1,7,Javin Herbert,Godley,81.65,231.33,120.2,204.12,555.65,Single-ply,SBD,M
Boys,82.1,8,Ahron Arroyo,Wimberley,79.38,226.8,108.86,208.65,544.31,Single-ply,SBD,M
Boys,82.1,9,Colby Sampson,Alvarado,80.2,215.46,127.01,199.58,542.04,Single-ply,SBD,M
Boys,82.1,10,Ethan Linder,Robinson,81.19,190.51,136.08,204.12,530.7,Single-ply,SBD,M
Boys,82.1,11,Frank Ramsey,Wimberley,81.37,199.58,104.33,226.8,530.7,Single-ply,SBD,M
Boys,82.1,DQ,Emmanuel Abdallah,China Spring,79.56,,,,,Single-ply,SBD,M
Boys,89.81,1,Connor Cook,Salado,88.45,272.16,163.29,251.74,687.19,Single-ply,SBD,M
Boys,89.81,2,Erik Fisk,Godley,88.81,260.82,142.88,219.99,623.69,Single-ply,SBD,M
Boys,89.81,3,Rolando Ramirez,Hillsboro,87,226.8,147.42,222.26,596.47,Single-ply,SBD,M
Boys,89.81,4,Josh Gunn,Robinson,89.09,217.72,149.69,229.06,596.47,Single-ply,SBD,M
Boys,89.81,5,Rene Aguirre,Taylor,89.81,235.87,140.61,217.72,594.21,Single-ply,SBD,M
Boys,89.81,6,Issic DeLaCruz,Stephenville,84.91,235.87,145.15,204.12,585.13,Single-ply,SBD,M
Boys,89.81,7,Cristian Keizer,Liberty Hill,86.36,229.06,154.22,192.78,576.06,Single-ply,SBD,M
Boys,89.81,8,Xander Webb,Alvarado,89.36,222.26,136.08,213.19,571.53,Single-ply,SBD,M
Boys,89.81,9,Cade Michna,Lorena,87.09,204.12,124.74,204.12,532.97,Single-ply,SBD,M
Boys,89.81,10,Logan Duggar,Llano,82.74,201.85,99.79,219.99,521.63,Single-ply,SBD,M
Boys,89.81,11,Cooper Wagenschein,Robinson,86.82,197.31,115.67,199.58,512.56,Single-ply,SBD,M
Boys,89.81,NS,Lakota Lawrence,Liberty Hill,,,,,,Single-ply,SBD,M
Boys,89.81,DQ,Michael Flores #7,Hillsboro,86.27,,,,,Single-ply,SBD,M
Boys,99.79,1,AJ Castaneda,Bellville,92.99,265.35,190.51,249.48,705.34,Single-ply,SBD,M
Boys,99.79,2,Sammy Segura,Giddings,97.43,251.74,170.1,235.87,657.71,Single-ply,SBD,M
Boys,99.79,3,Sterling Harris,Lorena,99.25,249.48,170.1,226.8,646.37,Single-ply,SBD,M
Boys,99.79,4,Dre'Vaun Cooper,Mexia,92.99,249.48,142.88,219.99,612.35,Single-ply,SBD,M
Boys,99.79,5,Ethan Duckworth,China Spring,97.61,208.65,161.03,208.65,578.33,Single-ply,SBD,M
Boys,99.79,6,Colton Tucker,Lorena,93.62,226.8,145.15,204.12,576.06,Single-ply,SBD,M
Boys,99.79,7,Brady King,Robinson,92.8,229.06,136.08,197.31,562.45,Single-ply,SBD,M
Boys,99.79,8,Oliver Tre,Robinson,96.52,244.94,115.67,195.04,555.65,Single-ply,SBD,M
Boys,99.79,9,Joe Sampson,Salado,93.35,201.85,147.42,192.78,542.04,Single-ply,SBD,M
Boys,99.79,10,Caleb Smith #9,Stephenville,93.35,190.51,136.08,188.24,514.83,Single-ply,SBD,M
Boys,99.79,11,Brayan Luna,Mexia,97.25,183.7,120.2,183.7,487.61,Single-ply,SBD,M
Boys,99.79,DQ,Mario Sedillo,Robinson,97.34,183.7,,,,Single-ply,SBD,M
Boys,109.77,1,Roger Craig,Burnet,109.5,272.16,183.7,263.08,718.94,Single-ply,SBD,M
Boys,109.77,2,Zac Hudgins,Burnet,107.23,249.48,161.03,233.6,644.1,Single-ply,SBD,M
Boys,109.77,3,Tommie Barker,Salado,108.23,240.4,158.76,235.87,635.03,Single-ply,SBD,M
Boys,109.77,4,Rudy Esparza,Lampasas,108.59,238.14,147.42,226.8,612.35,Single-ply,SBD,M
Boys,109.77,5,Vernon Walker,Waco La Vega,104.51,249.48,136.08,215.46,601.01,Single-ply,SBD,M
Boys,109.77,6,Cameron Coburn,Wimberley,107.14,229.06,149.69,219.99,598.74,Single-ply,SBD,M
Boys,109.77,7,Jeremy Rodgers,Lampasas,107.86,217.72,131.54,231.33,580.6,Single-ply,SBD,M
Boys,109.77,8,Zeke Ibarra,Brownwood,105.32,204.12,158.76,192.78,555.65,Single-ply,SBD,M
Boys,109.77,9,Brad Robinson,Brownwood,107.23,226.8,136.08,188.24,551.11,Single-ply,SBD,M
Boys,109.77,DQ,Zach Powell,Glen Rose,107.5,217.72,,,,Single-ply,SBD,M
Boys,109.77,DQ,Drake Truitt,Liberty Hill,109.77,274.42,147.42,,,Single-ply,SBD,M
Boys,109.77,DQ,Jacob Snoddy,Gatesville,108.5,,,,,Single-ply,SBD,M
Boys,124.74,1,Justin Montgomery,Liberty Hill,121.29,306.17,201.85,260.82,768.84,Single-ply,SBD,M
Boys,124.74,2,Jim Hitchcock,Gatesville,121.29,306.17,151.95,272.16,730.28,Single-ply,SBD,M
Boys,124.74,3,James Baggett,Waco La Vega,117.39,247.21,190.51,226.8,664.51,Single-ply,SBD,M
Boys,124.74,4,Daniel Wilder,Robinson,118.84,272.16,140.61,233.6,646.37,Single-ply,SBD,M
Boys,124.74,5,Tyler Sparks,Lorena,116.03,249.48,147.42,217.72,614.62,Single-ply,SBD,M
Boys,124.74,6,Demontavion Carprew,Waco Connally,117.57,226.8,142.88,213.19,582.87,Single-ply,SBD,M
Boys,124.74,7,Cameron Anderson,Bellville,121.11,226.8,154.22,197.31,578.33,Single-ply,SBD,M
Boys,124.74,8,Hayden Henry,Burnet,116.12,231.33,124.74,213.19,569.26,Single-ply,SBD,M
Boys,124.74,9,Jahaziel Compeon,Hillsboro,122.47,222.26,136.08,199.58,557.92,Single-ply,SBD,M
Boys,124.74,10,Eduardo Arteaga,Brookshire Royal,122.65,222.26,115.67,219.99,557.92,Single-ply,SBD,M
Boys,124.74,11,Gabriel Gongora,Waco La Vega,119.75,226.8,117.93,210.92,555.65,Single-ply,SBD,M
Boys,124.74,NS,Hilario Rodriguez,Navasota,,,,,,Single-ply,SBD,M
Boys,124.74+,1,Hayden Shaw,Glen Rose,130.45,281.23,142.88,263.08,687.19,Single-ply,SBD,M
Boys,124.74+,2,Kyle Strimiska,Gatesville,132.9,272.16,172.37,235.87,680.39,Single-ply,SBD,M
Boys,124.74+,3,Chris Sifuentes,Giddings,147.51,267.62,154.22,254.01,675.85,Single-ply,SBD,M
Boys,124.74+,4,Theo Bryant,Brownwood,127.01,294.84,142.88,229.06,666.78,Single-ply,SBD,M
Boys,124.74+,5,Chase Sharp,China Spring,128.55,281.23,167.83,217.72,666.78,Single-ply,SBD,M
Boys,124.74+,6,Devin Smith,Waco La Vega,127.19,272.16,133.81,213.19,619.15,Single-ply,SBD,M
Boys,124.74+,7,Trace Lopez,Taylor,128.64,233.6,154.22,219.99,607.81,Single-ply,SBD,M
Boys,124.74+,8,Jared Tippie,Burnet,141.97,251.74,145.15,206.38,603.28,Single-ply,SBD,M
Boys,124.74+,9,Trace Snyder,Robinson,158.85,219.99,140.61,238.14,598.74,Single-ply,SBD,M
Boys,124.74+,10,Ethan Psencik,Smithville,129.27,217.72,149.69,206.38,573.79,Single-ply,SBD,M
Boys,124.74+,11,Ak Medlock,Mexia,150.14,215.46,129.27,217.72,562.45,Single-ply,SBD,M
Boys,124.74+,DQ,Seth Bynum-Graham,Hillsboro,178.53,,,,,Single-ply,SBD,M
