Sex,Name,Country,State,Age,Event,WeightClassKg,Division,Equipment,Best3BenchKg,Bench4Kg,Best3DeadliftKg,Deadlift4Kg,TotalKg,Place
F,Carin Fujisaki,USA,CA,47,B,48,M 45-49,Single-ply,75,,,,75,1
F,Carin Fujisaki,USA,CA,47,B,48,Open,Single-ply,75,,,,75,1
F,Carin Fujisaki,USA,CA,47,B,48,R Open,Raw,75,,,,75,1
F,Helene Tropp,USA,CA,67,B,48,RLM 65-69,Raw,50,,,,50,1
F,Carin Fujisaki,USA,CA,47,B,48,RM 45-49,Raw,75,,,,75,1
F,Michelle Watts,USA,CA,28,B,52,R Life,Raw,65,,,,65,1
F,Anna Urbanikova,Slovakia,,30,B,52,R Open,Raw,42.5,,,,42.5,2
F,Michelle Watts,USA,CA,28,B,52,R Open,Raw,65,,,,65,1
F,Lynda Christopher,USA,AZ,44,B,56,LM 40-44,Single-ply,55,,,,55,1
F,Lynda Christopher,USA,AZ,44,B,56,Law/Mil,Single-ply,55,,,,55,1
F,Lynda Christopher,USA,AZ,44,B,56,R Law/Mil 40-44,Raw,55,,,,55,1
F,Lynda Christopher,USA,AZ,44,B,56,R Law/Mil,Raw,55,,,,55,1
F,Lynda Christopher,USA,AZ,44,B,56,RLM 40-44,Raw,55,,,,55,1
F,Delores Grimes,USA,VA,34,B,60,R Law/Mil,Raw,,,,,,DQ
F,Erica Poole,USA,VA,25,B,60,R Law/Mil,Raw,,,,,,DQ
F,Jana Purdjakova,Slovakia,,30,B,60,R Open,Raw,65,72.5,,,65,1
F,Terri Miller,USA,NE,26,B,67.5,Open,Single-ply,,,,,,DQ
F,Terri Miller,USA,NE,26,B,67.5,R Life,Raw,72.5,,,,72.5,1
F,Lenka Chalupkovac,Slovakia,,33,B,67.5,R Open,Raw,55,,,,55,1
F,Monique Tanksley,USA,VA,39,B,67.5,R Law/Mil Sub,Raw,55,,,,55,1
F,Lynn Naftel,USA,CA,62,B,67.5,RLM 60-64,Raw,50,52,,,50,1
F,Lynn Naftel,USA,CA,62,B,67.5,RM 60-64,Raw,50,52,,,50,1
F,Alannah McTighe,USA,CO,55,B,90,M 55-59,Single-ply,102.5,,,,102.5,1
F,Susan Collins,USA,AZ,45,B,90,RM 45-49,Raw,70,,,,70,1
F,Lucy Hawkins #1,USA,VA,51,B,90,R Law/Mil,Raw,60,,,,60,1
F,Lucy Hawkins #1,USA,VA,51,B,90,RM 50-54,Raw,60,,,,60,1
F,Alannah McTighe,USA,CO,55,B,90+,Life,Single-ply,102.5,,,,102.5,1
F,Patricia McCauley,USA,VA,38,B,90+,R Law/Mil Sub,Raw,60,,,,60,1
F,Helene Tropp,USA,CA,67,D,48,RLM 65-69,Raw,,,102.5,105,102.5,1
F,Michelle Watts,USA,CA,28,D,52,R Life,Raw,,,92.5,,92.5,1
F,Michelle Watts,USA,CA,28,D,52,R Open,Raw,,,92.5,,92.5,1
F,Michelle Kilikauskas,USA,CA,48,D,52,RM 45-49,Raw,,,90,,90,1
F,Lynda Christopher,USA,AZ,44,D,56,Law/Fire/Mil,Single-ply,,,102.5,,102.5,1
F,Lynda Christopher,USA,AZ,44,D,56,Law/Fire/Mil 40-44,Single-ply,,,102.5,,102.5,1
F,Michelle Bruenmeier,USA,NE,33,D,56,Open,Single-ply,,,112.5,,112.5,1
F,Michelle Bruenmeier,USA,NE,33,D,56,R Open,Raw,,,112.5,,112.5,1
F,Lynda Christopher,USA,AZ,44,D,56,RM 40-44,Raw,,,102.5,,102.5,1
F,Lynda Christopher,USA,AZ,44,D,56,RLM 40-44,Raw,,,102.5,,102.5,1
F,Lynda Christopher,USA,AZ,44,D,56,R Law/Mil,Raw,,,102.5,,102.5,1
F,Lynda Christopher,USA,AZ,44,D,56,RLM 40-44,Raw,,,102.5,,102.5,2
F,Debbie Selby,USA,CA,,D,75,R Life,Raw,,,120,125,120,1
F,Debbie Selby,USA,CA,,D,75,RLM 50-54,Raw,,,120,125,120,1
F,Susan Collins,USA,AZ,45,D,90,RM 45-49,Raw,,,137.5,142.5,137.5,1
F,Florence Wilson,USA,PA,,D,90,RT 12-13,Raw,,,92.5,95,92.5,1
F,Liz Willett,USA,WA,,D,90+,Open,Single-ply,,,,,,DQ
F,Linda Schaeffer,USA,CO,46,D,90+,Open,Single-ply,,,197.5,,197.5,1
F,Marjorie Grimes,USA,AZ,60,BD,48,RLM 60-64,Raw,37.5,,95,97.5,132.5,1
F,Helene Tropp,USA,CA,67,BD,48,RLM 65-69,Raw,50,,102.5,105,152.5,1
F,Michelle Watts,USA,CA,28,BD,52,R Life,Raw,65,,92.5,,157.5,1
F,Michelle Watts,USA,CA,28,BD,52,R Open,Raw,65,,92.5,,157.5,1
F,Michelle Kilikauskas,USA,CA,48,BD,52,RM 45-49,Raw,40,,90,,130,1
F,Lynda Christopher,USA,AZ,44,BD,56,Life,Single-ply,55,,102.5,,157.5,1
F,Lynda Christopher,USA,AZ,44,BD,56,LM 40-44,Single-ply,55,,102.5,,157.5,1
F,Michelle Bruenmeier,USA,NE,33,BD,56,Open,Single-ply,47.5,,112.5,,160,1
F,Lynda Christopher,USA,AZ,44,BD,56,R Life,Raw,55,,102.5,,157.5,1
F,Lynda Christopher,USA,AZ,44,BD,56,R Law/Mil 40-44,Raw,55,,102.5,,157.5,1
F,Michelle Bruenmeier,USA,NE,33,BD,56,R Open,Raw,47.5,,112.5,,160,1
F,Lynda Christopher,USA,AZ,44,BD,56,RLM 40-44,Raw,55,,102.5,,157.5,1
F,Sarah Biddle,USA,IN,,BD,60,Life,Single-ply,57.5,,97.5,100,155,1
F,Brenda Aguirre,Mexico,,,BD,60,Open,Single-ply,,,,,,DQ
F,Sarah Biddle,USA,IN,,BD,60,Open,Single-ply,57.5,,97.5,100,155,1
F,Sarah Biddle,USA,IN,,BD,60,R Life,Raw,57.5,,97.5,100,155,1
F,Morgan Heffley,USA,CA,18,BD,60,R Open,Raw,55,,142.5,,197.5,1
F,Sarah Biddle,USA,IN,,BD,60,R Open,Raw,57.5,,97.5,100,155,2
F,Sarah Biddle,USA,IN,,BD,60,RT 14-15,Raw,57.5,,97.5,100,155,1
F,Keli Miles,USA,,17,BD,60,RT 16-17,Raw,,,,,,DQ
F,Morgan Heffley,USA,CA,18,BD,60,RT 18-19,Raw,55,,142.5,,197.5,1
F,Sarah Biddle,USA,IN,,BD,60,T 14-15,Single-ply,57.5,,97.5,100,155,1
F,Daniella Ordaz,Mexico,,12,BD,67.5,RT 12-13,Raw,37.5,,72.5,,110,1
F,Connie Wilson,USA,PA,,BD,67.5,RM 40-44,Raw,,,,,,DQ
F,Daniella Ordaz,Mexico,,12,BD,67.5,T 12-13,Single-ply,40,,77.5,,117.5,1
F,Debbie Selby,USA,CA,,BD,75,RM 50-54,Raw,45,,120,125,165,1
F,Abigail Biddle,USA,IN,,BD,82.5,Life,Single-ply,62.5,,135,,197.5,1
F,Abigail Biddle,USA,IN,,BD,82.5,Law/Mil,Single-ply,62.5,,135,,197.5,1
F,Abigail Biddle,USA,IN,,BD,82.5,Open,Single-ply,62.5,,135,,197.5,1
F,Abigail Biddle,USA,IN,,BD,82.5,R Life,Raw,62.5,,135,,197.5,1
F,Jennifer Abbott,USA,,16,BD,82.5,RT 16-17,Raw,,,,,,DQ
F,Abigail Biddle,USA,IN,,BD,82.5,RT 18-19,Raw,62.5,,135,,197.5,1
F,Abigail Biddle,USA,IN,,BD,82.5,T 18-19,Single-ply,62.5,,135,,197.5,1
F,Susan Collins,USA,AZ,45,BD,90,RM 45-49,Raw,70,,137.5,142.5,207.5,1
F,Lucy Hawkins #1,USA,VA,51,BD,90,R Law/Mil 50-54,Raw,60,,87.5,116.5,147.5,1
F,Florence Wilson,USA,PA,,BD,90,RT 12-13,Raw,35,,92.5,95,127.5,1
F,Liz Willett,USA,WA,,BD,90+,Open,Single-ply,,,,,,DQ
F,Hannah Biddle,USA,IN,,BD,90+,Life,Single-ply,55,,125,,180,1
F,Linda Schaeffer,USA,CO,46,BD,90+,M 45-49,Single-ply,100.5,,197.5,,298,1
F,Hannah Biddle,USA,IN,,BD,90+,Open,Single-ply,55,,125,,180,1
F,Hannah Biddle,USA,IN,,BD,90+,R Life,Raw,55,,125,,180,1
F,Hannah Biddle,USA,IN,,BD,90+,R Open,Raw,55,,125,,180,1
F,Hannah Biddle,USA,IN,,BD,90+,RT 16-17,Raw,55,,125,,180,1
F,Hannah Biddle,USA,IN,,BD,90+,T 16-17,Single-ply,55,,125,,180,1
M,Nathan Litowski,USA,NJ,,B,48,T 12-13,Single-ply,60,,,,60,1
M,Bayrammu Amanmuradov,Turkmenistan,,21,B,56,R Life,Raw,,,,,,DQ
M,Emil Kolpakov,Turkmenistan,,16,B,60,R Life,Raw,,,,,,DQ
M,Fedir Khashalov,Ukraine,,25,B,60,R Life,Raw,120,,,,120,1
M,Mark Schultz,USA,CA,48,B,60,R Life,Raw,95,,,,95,2
M,Fedir Khashalov,Ukraine,,25,B,60,R Open,Raw,120,,,,120,1
M,Mark Schultz,USA,CA,48,B,60,RLM 45-49,Raw,95,,,,95,1
M,Jim Selby,USA,CA,78,B,60,RLM 75-79,Raw,55,,,,55,1
M,Billy Ssengendo,Uganda,,,B,60,Disabled,Raw,,,,,,DQ
M,Ata Edralin,USA,HI,40,B,67.5,Life,Single-ply,160,,,,160,2
M,Narbe Mansourian,USA,CA,30,B,67.5,Life,Single-ply,165,,,,165,1
M,Ata Edralin,USA,HI,40,B,67.5,LM 40-44,Single-ply,160,,,,160,1
M,Ata Edralin,USA,HI,40,B,67.5,M 40-44,Single-ply,160,,,,160,1
M,Gordon Santee,USA,CA,60,B,67.5,M 60-64,Single-ply,110,112.5,,,110,1
M,Paul Dubose,USA,IN,60,B,67.5,M 60-64,Single-ply,,,,,,DQ
M,Ata Edralin,USA,HI,40,B,67.5,Open,Single-ply,160,,,,160,2
M,Narbe Mansourian,USA,CA,30,B,67.5,Open,Single-ply,165,,,,165,1
M,Narbe Mansourian,USA,CA,30,B,67.5,R Life,Raw,165,,,,165,1
M,Carlos Almanza,USA,VA,22,B,67.5,R Law/Mil JR,Raw,87.5,92.5,,,87.5,1
M,Christian Navarro #2,Mexico,,28,B,67.5,R Open,Raw,135,,,,135,2
M,Narbe Mansourian,USA,CA,30,B,67.5,R Open,Raw,165,,,,165,1
M,Paul Dubose,USA,IN,60,B,67.5,RM 60-64,Raw,,,,,,DQ
M,Jim Matthews,USA,CA,72,B,67.5,RM 70-74,Raw,90,,,,90,1
M,Victor Hill Jr,USA,CA,,B,67.5,RT 16-17,Raw,,,,,,DQ
M,Joseph Singleton,USA,MD,52,B,75,Disabled,Raw,122.5,123,,,122.5,1
M,Martin Drake,USA,CA,55,B,75,Life,Single-ply,137.5,,,,137.5,1
M,Fulton White,USA,NV,,B,75,LM 45-49,Single-ply,137.5,,,,137.5,1
M,Martin Drake,USA,CA,55,B,75,LM 55-59,Single-ply,137.5,,,,137.5,1
M,Martin Drake,USA,CA,55,B,75,M 55-59,Single-ply,137.5,,,,137.5,1
M,Ray Lopez,USA,CA,70,B,75,M 70-74,Single-ply,102.5,,,,102.5,1
M,Larry Dyles,USA,VA,23,B,75,R JR,Raw,,,,,,DQ
M,Joseph Singleton,USA,MD,52,B,75,R Law/Mil,Raw,122.5,123,,,122.5,1
M,Joseph Singleton,USA,MD,52,B,75,R Life,Raw,122.5,,,,122.5,1
M,Joseph Singleton,USA,MD,52,B,75,R Law/Mil 50-54,Raw,122.5,123,,,122.5,1
M,Alfredo Hernandez,Mexico,,34,B,75,R Open,Raw,135,,,,135,1
M,Joseph Singleton,USA,MD,52,B,75,R Open,Raw,122.5,,,,122.5,2
M,Merdan Nurshatov,Turkmenistan,,,B,75,R Open,Raw,,,,,,DQ
M,Joseph Singleton,USA,MD,52,B,75,RLM 50-54,Raw,122.5,123,,,122.5,1
M,Martin Drake,USA,CA,55,B,75,RLM 55-59,Raw,130,,,,130,1
M,Anthony Williamson,USA,MD,40,B,75,R Law/Mil 40-44,Raw,,,,,,DQ
M,Joseph Singleton,USA,MD,52,B,75,RM 50-54,Raw,122.5,123,,,122.5,1
M,Martin Drake,USA,CA,55,B,75,RM 55-59,Raw,130,,,,130,1
M,Clyde Lynn,USA,TX,62,B,82.5,LM 60-64,Single-ply,125,130,,,125,1
M,Clyde Lynn,USA,TX,62,B,82.5,M 60-64,Single-ply,125,,,,125,1
M,Rudy Lozano,USA,CA,,B,82.5,M 65-69,Single-ply,,,,,,DQ
M,Robert Acuna,Colombia,,,B,82.5,Open,Single-ply,,,,,,DQ
M,Shazhko Yaroslav,Ukraine,,25,B,82.5,Open,Single-ply,,,,,,DQ
M,Greg Clover,USA,CA,57,B,82.5,R Life,Raw,,,,,,DQ
M,Kevin Nunez,USA,CA,36,B,82.5,R Life,Raw,137.5,,,,137.5,2
M,Ramis Bahashaliev,Canada,,,B,82.5,R Life,Raw,160,,,,160,1
M,Kevin Nunez,USA,CA,36,B,82.5,R Open,Raw,137.5,,,,137.5,3
M,Mark Matthews Jr,USA,CA,16,B,82.5,R Open,Raw,170,,,,170,1
M,Ramis Bahashaliev,Canada,,,B,82.5,R Open,Raw,160,,,,160,2
M,Kevin Nunez,USA,CA,36,B,82.5,R Sub,Raw,137.5,,,,137.5,1
M,Robert Morgan,USA,VA,38,B,82.5,R Sub,Raw,,,,,,DQ
M,Joseph Day,USA,VA,39,B,82.5,R Law/Mil Sub,Raw,,,,,,DQ
M,Robert Morgan,USA,VA,38,B,82.5,R Law/Mil Sub,Raw,,,,,,DQ
M,Eric Matsura,USA,CA,40,B,82.5,RLM 40-44,Raw,142.5,,,,142.5,1
M,Thomas Hendron,USA,NV,49,B,82.5,RLM 45-49,Raw,97.5,,,,97.5,1
M,Greg Clover,USA,CA,57,B,82.5,RLM 55-59,Raw,,,,,,DQ
M,Eric Matsura,USA,CA,40,B,82.5,RM 40-44,Raw,142.5,,,,142.5,1
M,Thomas Hendron,USA,NV,49,B,82.5,RM 45-49,Raw,97.5,,,,97.5,1
M,Alston Royal,USA,MD,45,B,82.5,R Law/Mil 45-49,Raw,107.5,,,,107.5,1
M,Greg Clover,USA,CA,57,B,82.5,RM 55-59,Raw,,,,,,DQ
M,Mark Matthews Jr,USA,CA,16,B,82.5,RT 16-17,Raw,170,,,,170,1
M,Kevin Nunez,USA,CA,36,B,82.5,Sub,Single-ply,137.5,,,,137.5,1
M,Pedro Flores,Mexico,,19,B,82.5,T 18-19,Single-ply,115,,,,,DQ
M,Herb Heald,USA,TX,55,B,90,LM 55-59,Single-ply,110,,,,110,1
M,Les Hilger,USA,CA,63,B,90,LM 60-64,Single-ply,140,,,,140,1
M,Jerry Homer Sr,USA,AZ,67,B,90,LM 65-69,Single-ply,152.5,,,,152.5,1
M,Bob Dunham,USA,CA,42,B,90,M 40-44,Single-ply,217.5,,,,217.5,1
M,Bill Weiss,USA,CA,47,B,90,M 45-49,Single-ply,150,,,,150,1
M,Herb Heald,USA,TX,55,B,90,M 55-59,Single-ply,110,,,,110,1
M,James Burdette,USA,CA,,B,90,Open,Single-ply,,,,,,DQ
M,Viktor Matsykur,Ukraine,,31,B,90,Open,Single-ply,147.5,,,,147.5,1
M,Brandon Branning,USA,WY,26,B,90,R Life,Raw,172.5,,,,172.5,1
M,Nicholas Joy,USA,MD,35,B,90,R Life,Raw,107.5,,,,107.5,2
M,Paul Dyer,USA,CA,53,B,90,R Life,Raw,95,97.5,,,95,3
M,Jan Sramko,Slovakia,,49,B,90,R Open,Raw,132.5,,,,132.5,1
M,Corey Dabney,USA,VA,36,B,90,R Sub,Raw,122.5,,,,122.5,1
M,Corey Dabney,USA,VA,36,B,90,R Law/Mil Sub,Raw,122.5,,,,122.5,1
M,Nicholas Joy,USA,MD,35,B,90,R Law/Mil Sub,Raw,107.5,,,,107.5,2
M,Paul Dyer,USA,CA,53,B,90,RLM 50-54,Raw,95,97.5,,,95,1
M,Henry Fultz,USA,CA,47,B,90,RM 45-49,Raw,165,,,,165,1
M,Jan Sramko,Slovakia,,49,B,90,RM 45-49,Raw,132.5,,,,132.5,2
M,Jacobi Jordan,USA,NV,16,B,90,RT 16-17,Raw,,,,,,DQ
M,Roy Reyes,Mexico,,18,B,90,T 18-19,Single-ply,147.5,,,,147.5,1
M,Jordan Jacobi,USA,,16,B,90,T 16-17,Single-ply,170,177.5,,,170,1
M,Saul Mendoza,Mexico,,,B,100,JR,Single-ply,165,172.5,,,165,1
M,Bob Beckett,USA,NV,47,B,100,Law/Mil,Single-ply,147.5,,,,147.5,1
M,Robert Harris,USA,NV,48,B,100,Life,Single-ply,192.5,,,,192.5,1
M,Bob Beckett,USA,NV,47,B,100,LM 45-49,Single-ply,147.5,,,,147.5,2
M,Robert Harris,USA,NV,48,B,100,LM 45-49,Single-ply,192.5,,,,192.5,1
M,Jack Lano,USA,CA,84,B,100,LM 80-84,Single-ply,50,,,,50,1
M,Bob Beckett,USA,NV,47,B,100,M 45-49,Single-ply,147.5,,,,147.5,1
M,Isaac Torres,Mexico,,46,B,100,M 45-49,Single-ply,,,,,,DQ
M,Jack Lano,USA,CA,84,B,100,M 80-84,Single-ply,50,,,,50,1
M,Bob Beckett,USA,NV,47,B,100,Open,Single-ply,147.5,,,,147.5,1
M,Kamal Charafeddine,Netherlands,,40,B,100,R Open,Raw,187.5,,,,187.5,2
M,Vladimir Flimel,Slovakia,,30,B,100,R Open,Raw,212.5,,,,212.5,1
M,Anthony Jones,USA,VA,40,B,100,R Law/Mil,Raw,166,,,,166,1
M,Nate Jamison,USA,MD,36,B,100,R Sub,Raw,142.5,,,,142.5,1
M,Marvin Stewart,USA,VA,37,B,100,R Law/Mil Sub,Raw,130,,,,130,1
M,Victor Hill,USA,CA,,B,100,RLM 45-49,Raw,,,,,,DQ
M,Ed Berteaux,USA,CA,52,B,100,RLM 50-54,Raw,163.5,166,,,163.5,1
M,John Kuhar,USA,OH,59,B,100,RLM 55-59,Raw,165,,,,165,1
M,William Hill,USA,CA,62,B,100,RLM 60-64,Raw,140,,,,140,1
M,Joe DeMarco,USA,CA,76,B,100,RLM 75-79,Raw,112.5,115,,,112.5,1
M,Ron Gavett,USA,CA,41,B,100,RM 40-44,Raw,185,,,,185,1
M,Anthony Jones,USA,VA,40,B,100,R Law/Mil 40-44,Raw,166,,,,166,1
M,Victor Hill,USA,CA,,B,100,RM 45-49,Raw,,,,,,DQ
M,Ed Collins,USA,CA,58,B,100,RM 55-59,Raw,137.5,,,,137.5,2
M,John Kuhar,USA,OH,59,B,100,RM 55-59,Raw,165,,,,165,1
M,William Hill,USA,CA,62,B,100,RM 60-64,Raw,140,,,,140,1
M,Gary Andrew,USA,MI,,B,110,Law/Mil 45-49,Single-ply,215,217.5,,,215,1
M,Gary Andrew,USA,MI,,B,110,LM 45-49,Single-ply,215,217.5,,,215,1
M,Phil Crawford,USA,CA,61,B,110,LM 60-64,Single-ply,130,,,,130,1
M,Daniel Smith III,USA,CA,63,B,110,M 60-64,Single-ply,,,,,,DQ
M,Louis Grey,USA,VA,33,B,110,R Law/Mil,Raw,172.5,,,,172.5,1
M,Robert Fleishauer,USA,VA,33,B,110,R Law/Mil,Raw,165,,,,165,2
M,Brandon Blackwood,USA,CA,38,B,110,R Sub,Raw,137.5,,,,137.5,1
M,Mark Matthews Sr,USA,CA,43,B,110,RLM 40-44,Raw,182.5,,,,182.5,1
M,Felipe Zepeda,USA,CA,49,B,110,RLM 45-49,Raw,147.5,,,,147.5,1
M,Phil Crawford,USA,CA,61,B,110,RLM 60-64,Raw,130,,,,130,1
M,Walt Adkins,USA,CA,62,B,110,RLM 60-64,Raw,130,,,,130,2
M,Phil Crawford,USA,CA,61,B,110,RM 60-64,Raw,130,,,,130,1
M,Walt Adkins,USA,CA,62,B,110,R Law/Mil 60-64,Raw,130,,,,130,1
M,Jonathan Hoffman,USA,CA,19,B,110,T 18-19,Single-ply,200,,,,200,1
M,Doug Knapp,USA,CA,59,B,125,Law/Mil 55-59,Single-ply,175,,,,175,1
M,Scott Hoekstra,USA,CA,40,B,125,M 40-44,Single-ply,272.5,280,,,272.5,1
M,Ralph Branning,USA,WY,50,B,125,M 50-54,Single-ply,205,,,,205,1
M,Doug Knapp,USA,CA,59,B,125,M 55-59,Single-ply,175,,,,175,1
M,Joe Aldecoa,USA,CA,,B,125,Law/Mil,Single-ply,222.5,,,,222.5,1
M,Joe Aldecoa,USA,CA,,B,125,Open,Single-ply,222.5,,,,222.5,3
M,Ralph Branning,USA,WY,50,B,125,Open,Single-ply,245,,,,245,2
M,Scott Hoekstra,USA,CA,40,B,125,Open,Single-ply,272.5,280,,,272.5,1
M,Ralph Branning,USA,WY,50,B,125,RLM 50-54,Raw,205,,,,205,1
M,Ralph Branning,USA,WY,50,B,125,RM 50-54,Raw,205,,,,205,1
M,Randy James,USA,OH,45,B,140,LM 45-49,Single-ply,202.5,,,,202.5,2
M,Wayne Kaaloa,USA,HI,47,B,140,LM 45-49,Single-ply,215,,,,215,1
M,Dan Smith,USA,CA,48,B,140,M 45-49,Single-ply,202.5,,,,202.5,2
M,Randy James,USA,OH,45,B,140,M 45-49,Single-ply,202.5,,,,202.5,3
M,Wayne Kaaloa,USA,HI,47,B,140,M 45-49,Single-ply,215,,,,215,1
M,Dan Smith,USA,CA,48,B,140,Open,Single-ply,202.5,,,,202.5,4
M,Steven Davenport,USA,NE,35,B,140,Open,Single-ply,252.5,,,,252.5,1
M,Steven Davenport,USA,NE,35,B,140,Open,Single-ply,252.5,,,,252.5,2
M,Wayne Kaaloa,USA,HI,47,B,140,Open,Single-ply,215,,,,215,3
M,Marcel Sidlik,Slovakia,,34,B,140,R Open,Raw,,,,,,DQ
M,Zach Chirco,USA,MA,18,B,140,T 18-19,Single-ply,182.5,,,,182.5,1
M,Gary Gertner,USA,CO,47,B,140+,M 45-49,Single-ply,242.5,250,,,242.5,1
M,David Marchant,USA,UT,44,B,140+,RLM 40-44,Raw,240,,,,240,1
M,David Marchant,USA,UT,44,B,140+,RM 40-44,Raw,240,,,,240,1
M,Gary Gertner,USA,CO,47,B,140+,RM 45-49,Raw,207.5,,,,207.5,1
M,Zach Figueroa,USA,CA,11,D,40,RY 10-11,Raw,,,75,,75,1
M,Nathan Litowski,USA,NJ,,D,48,T 12-13,Single-ply,,,102.5,,102.5,1
M,Bayrammu Amanmuradov,Turkmenistan,,21,D,56,R Life,Raw,,,,,,DQ
M,Emil Kolpakov,Turkmenistan,,16,D,60,R Life,Raw,,,,,,DQ
M,Mark Schultz,USA,CA,48,D,60,R Life,Raw,,,182.5,,182.5,1
M,Mark Schultz,USA,CA,48,D,60,RLM 45-49,Raw,,,182.5,,182.5,1
M,Mark Schultz,USA,CA,48,D,60,RM 45-49,Raw,,,182.5,,182.5,1
M,Jim Warner #1,USA,OH,51,D,67.5,Life,Single-ply,,,227.5,,227.5,1
M,Jim Warner #1,USA,OH,51,D,67.5,LM 50-54,Single-ply,,,227.5,,227.5,1
M,Jim Warner #1,USA,OH,51,D,67.5,M 50-54,Single-ply,,,227.5,,227.5,1
M,Gordon Santee,USA,CA,60,D,67.5,M 60-64,Raw,,,205,210,205,1
M,Jim Warner #1,USA,OH,51,D,67.5,Open,Single-ply,,,227.5,,227.5,1
M,Christian Navarro #2,Mexico,,28,D,67.5,R Open,Raw,,,185,,185,1
M,Steve Freides,USA,NJ,51,D,67.5,RLM 50-54,Raw,,,160,,160,1
M,Steve Freides,USA,NJ,51,D,67.5,RM 50-54,Raw,,,160,,160,1
M,Gordon Santee,USA,CA,60,D,67.5,RM 60-64,Raw,,,200,,200,1
M,Jim Matthews,USA,CA,72,D,67.5,RM 70-74,Raw,,,185,,185,1
M,Jim Selby,USA,CA,78,D,67.5,RM 75-79,Raw,,,110,,110,1
M,Andres Anchando,Mexico,,,D,67.5,T 16-17,Single-ply,,,200,,200,1
M,Jim Selby,USA,CA,78,D,67.5,RLM 75-79,Raw,,,110,,110,1
M,Fulton White,USA,NV,,D,75,LM 45-49,Single-ply,,,241,,241,1
M,Bill Weinstock,USA,CA,60,D,75,LM 60-64,Single-ply,,,197.5,,197.5,2
M,Martin Montgomery,USA,IN,64,D,75,LM 60-64,Single-ply,,,210,,210,1
M,Ron Scott,USA,CA,61,D,75,LM 60-64,Single-ply,,,,,,DQ
M,Martin Montgomery,USA,IN,64,D,75,M 60-64,Single-ply,,,210,,210,1
M,Fulton White,USA,NV,,D,75,Law/Mil 40-44,Single-ply,,,241,,241,1
M,Darren Flagg,USA,CO,33,D,75,Open,Single-ply,,,,,,DQ
M,Dean Kaneshiro,USA,HI,51,D,75,Open,Single-ply,,,237.5,,237.5,1
M,Marloe Mosley,USA,TX,48,D,75,Open,Single-ply,,,,,,DQ
M,Larry Dyles,USA,VA,23,D,75,R JR,Raw,,,,,,DQ
M,Alfredo Hernandez,Mexico,,34,D,75,R Open,Raw,,,212,,212,2
M,Dean Kaneshiro,USA,HI,51,D,75,R Open,Raw,,,237.5,,237.5,1
M,Merdan Nurshatov,Turkmenistan,,,D,75,R Open,Raw,,,,,,DQ
M,Dean Kaneshiro,USA,HI,51,D,75,RLM 50-54,Raw,,,237.5,,237.5,1
M,Dean Kaneshiro,USA,HI,51,D,75,RM 50-54,Raw,,,237.5,,237.5,1
M,Ramis Bahashaliev,Canada,,,D,82.5,R Life,Raw,,,,,,DQ
M,Brett Jones,USA,PA,35,D,82.5,R Open,Raw,,,245,,245,1
M,Carlos Rios,Puerto Rico,,,D,82.5,R Open,Raw,,,,,,DQ
M,Pavel Tsatsouline,USA,CA,37,D,82.5,R Open,Raw,,,227.5,,227.5,2
M,Brett Jones,USA,PA,35,D,82.5,R Sub,Raw,,,245,,245,1
M,Thomas Hendron,USA,NV,49,D,82.5,RLM 45-49,Raw,,,127.5,,127.5,1
M,Thomas Hendron,USA,NV,49,D,82.5,RM 45-49,Raw,,,127.5,,127.5,1
M,Mark Matthews Jr,USA,CA,16,D,82.5,RT 16-17,Raw,,,182.5,,182.5,1
M,Shane Oakley,USA,CO,20,D,90,JR,Single-ply,,,247.5,,247.5,1
M,Herb Heald,USA,TX,55,D,90,LM 55-59,Single-ply,,,150,,150,1
M,Herb Heald,USA,TX,55,D,90,M 55-59,Single-ply,,,150,,150,1
M,Roy Reyes,Mexico,,18,D,90,RT 18-19,Raw,,,205,,205,1
M,Tom Smith #3,USA,VA,60,D,90,RM 60-64,Raw,,,265,,265,1
M,Bob Beckett,USA,NV,47,D,100,Law/Mil,Single-ply,,,157.5,,157.5,1
M,Bob Beckett,USA,NV,47,D,100,LM 45-49,Single-ply,,,157.5,,157.5,2
M,Robert Harris,USA,NV,48,D,100,LM 45-49,Single-ply,,,227.5,,227.5,1
M,Jack Lano,USA,CA,84,D,100,LM 80-84,Raw,,,75,,75,1
M,Bob Beckett,USA,NV,47,D,100,M 45-49,Single-ply,,,157.5,,157.5,1
M,Jack Lano,USA,CA,84,D,100,M 80-84,Single-ply,,,75,,75,1
M,Bob Beckett,USA,NV,47,D,100,Open,Single-ply,,,157.5,,157.5,1
M,Daniel Gustafson,USA,CA,38,D,100,R Open,Raw,,,235,,235,1
M,Kamal Charafeddine,Netherlands,,40,D,100,R Open,Raw,,,235,,235,2
M,Daniel Gustafson,USA,CA,38,D,100,R Sub,Raw,,,235,,235,1
M,Nate Jamison,USA,MD,36,D,100,R Sub,Raw,,,215,,215,2
M,Clay Felton,USA,NV,,D,100,RLM 40-44,Raw,,,222.5,,222.5,1
M,Joe DeMarco,USA,CA,76,D,100,RLM 75-79,Raw,,,150,,150,1
M,Anthony Jones,USA,VA,40,D,100,R Law/Mil 40-44,Raw,,,182.5,,182.5,1
M,Phil Crawford,USA,CA,61,D,110,LM 60-64,Single-ply,,,165,,165,1
M,Brandon Blackwood,USA,CA,38,D,110,R Sub,Raw,,,230,,230,1
M,Mark Matthews Sr,USA,CA,43,D,110,RLM 40-44,Raw,,,232.5,,232.5,1
M,Felipe Zepeda,USA,CA,49,D,110,RLM 45-49,Raw,,,192.5,,192.5,1
M,Phil Crawford,USA,CA,61,D,110,RLM 60-64,Raw,,,165,,165,1
M,Phil Crawford,USA,CA,61,D,110,RM 60-64,Raw,,,165,,165,1
M,Jonathan Hoffman,USA,CA,19,D,110,T 18-19,Single-ply,,,215,,215,1
M,Ryan Klein,USA,NV,27,D,125,Life,Single-ply,,,,,,DQ
M,Zach Chirco,USA,MA,18,D,125,T 18-19,Single-ply,,,265,,265,1
M,John Heldt,USA,NV,36,D,140,R Sub,Raw,,,235,,235,1
M,Ron Heldt,USA,NV,63,D,140+,RLM 60-64,Raw,,,137.5,,137.5,1
M,Nathan Litowski,USA,NJ,,BD,48,T 12-13,Single-ply,60,,102.5,,162.5,1
M,Ross Maestas,USA,CO,17,BD,52,T 16-17,Single-ply,81,,145,,226,1
M,Bayrammu Amanmuradov,Turkmenistan,,21,BD,56,R Life,Raw,,,,,,DQ
M,Heriberto Valdivia,Mexico,,,BD,60,JR,Raw,,,,,,DQ
M,Emil Kolpakov,Turkmenistan,,16,BD,60,R Life,Raw,,,,,,DQ
M,Joe Giorno,USA,CO,21,BD,67.5,JR,Raw,102.5,,192.5,,295,1
M,Gordon Santee,USA,CA,60,BD,67.5,M 60-64,Single-ply,110,112.5,205,210,315,1
M,Christian Navarro #2,Mexico,,28,BD,67.5,Open,Single-ply,150,,185,,335,1
M,Joe Giorno,USA,CO,21,BD,67.5,Open,Single-ply,102.5,,192.5,,295,2
M,Christian Navarro #2,Mexico,,28,BD,67.5,R Open,Raw,135,,185,,320,1
M,Jim Selby,USA,CA,78,BD,67.5,RLM 75-79,Raw,55,,110,,165,1
M,Jim Matthews,USA,CA,72,BD,67.5,RM 70-74,Raw,90,,185,,275,1
M,Jim Selby,USA,CA,78,BD,67.5,RM 75-79,Raw,55,,110,,165,1
M,Mike Hills,USA,,15,BD,67.5,RT 14-15,Raw,,,,,,DQ
M,Andres Anchando,Mexico,,,BD,67.5,T 16-17,Single-ply,110,,200,,310,1
M,Fulton White,USA,NV,,BD,75,LM 45-49,Single-ply,137.5,,241,,378.5,1
M,Bill Weinstock,USA,CA,60,BD,75,LM 60-64,Single-ply,90,,197.5,,287.5,1
M,Marloe Mosley,USA,TX,48,BD,75,M 45-49,Single-ply,,,,,,DQ
M,Alfredo Gomez,Mexico,,,BD,75,M 60-64,Single-ply,,,,,,DQ
M,Alfredo Garcia,Mexico,,65,BD,75,M 65-69,Single-ply,102.5,,145,,247.5,1
M,Jorge Ortega,Mexico,,,BD,75,Open,Single-ply,145,,210,,355,1
M,Larry Dyles,USA,VA,23,BD,75,R JR,Raw,,,,,,DQ
M,Alfredo Hernandez,Mexico,,34,BD,75,R Open,Raw,135,,212,,347,1
M,Merdan Nurshatov,Turkmenistan,,,BD,75,R Open,Raw,,,,,,DQ
M,Jim Kane,USA,,15,BD,75,RT 14-15,Raw,,,,,,DQ
M,Joe Koch,USA,NY,17,BD,75,RT 16-17,Raw,107.5,,162.5,,270,1
M,Dennis Boykin,USA,CO,72,BD,82.5,LM 70-74,Single-ply,82.5,,125,,207.5,1
M,Clyde Lynn,USA,TX,62,BD,82.5,M 60-64,Single-ply,125,,157.5,,282.5,1
M,Dennis Boykin,USA,CO,72,BD,82.5,M 70-74,Single-ply,82.5,,125,,207.5,1
M,Richard Simon,USA,CA,75,BD,82.5,M 75-79,Single-ply,107.5,,160,,267.5,1
M,Nick Kraszyk,USA,MA,25,BD,82.5,Open,Single-ply,150,,212.5,,362.5,1
M,Saul Baldarama,Mexico,,,BD,82.5,Open,Single-ply,,,,,,DQ
M,Carlos Rios,Puerto Rico,,,BD,82.5,R Open,Raw,,,,,,DQ
M,Tony Rodriguez #1,USA,NV,38,BD,82.5,R Open,Raw,132.5,,237.5,,370,1
M,Tony Rodriguez #1,USA,NV,38,BD,82.5,R Sub,Raw,132.5,,237.5,,370,1
M,Thomas Hendron,USA,NV,49,BD,82.5,RLM 45-49,Raw,97.5,,127.5,,225,1
M,Jim Naftel,USA,CA,64,BD,82.5,RLM 60-64,Raw,82.5,,170,,252.5,1
M,Thomas Hendron,USA,NV,49,BD,82.5,RM 45-49,Raw,97.5,,127.5,,225,1
M,Jim Naftel,USA,CA,64,BD,82.5,RM 60-64,Raw,82.5,,170,,252.5,1
M,Mark Matthews Jr,USA,CA,16,BD,82.5,RT 16-17,Raw,170,,182.5,,352.5,1
M,Pedro Flores,Mexico,,19,BD,82.5,T 18-19,Single-ply,115,,160,,,DQ
M,Shane Oakley,USA,CO,20,BD,90,JR,Single-ply,137.5,,247.5,,385,1
M,Kevin Shaw,USA,TX,39,BD,90,Life,Single-ply,192.5,,242.5,,435,1
M,Herb Heald,USA,TX,55,BD,90,LM 55-59,Single-ply,110,,150,,260,1
M,Jerry Homer Sr,USA,AZ,67,BD,90,LM 65-69,Single-ply,152.5,,172.5,,325,1
M,Herb Heald,USA,TX,55,BD,90,M 55-59,Single-ply,110,,150,,260,1
M,Jim Weiss,USA,CA,79,BD,90,M 75-79,Single-ply,,,,,,DQ
M,William Leedy,USA,CA,76,BD,90,M 75-79,Single-ply,115,,195,,310,1
M,Michael Weinstock,USA,CA,21,BD,90,R JR,Raw,82.5,,110,,192.5,1
M,Jason Golec,USA,CA,32,BD,90,R Life,Raw,165,,242.5,,407.5,1
M,Tommy Williams,USA,MD,45,BD,90,R Open,Raw,142.5,,272.5,,415,1
M,Tommy Williams,USA,MD,45,BD,90,RM 45-49,Raw,142.5,,272.5,,415,1
M,David Campbell,USA,CA,17,BD,90,RT 16-17,Raw,137.5,,227.5,,365,1
M,Kevin Shaw,USA,TX,39,BD,90,Sub,Single-ply,192.5,,242.5,,435,1
M,Roy Reyes,Mexico,,18,BD,90,T 18-19,Single-ply,147.5,,210,,357.5,1
M,James Cain,USA,NY,16,BD,100,Open,Single-ply,107.5,,92.5,,200,5
M,Saul Mendoza,Mexico,,,BD,100,JR,Single-ply,165,172.5,210,,375,1
M,Bob Beckett,USA,NV,47,BD,100,Law/Mil,Single-ply,147.5,,157.5,,305,1
M,David Muro,USA,CA,36,BD,100,Life,Single-ply,215,,320,,535,1
M,Bob Beckett,USA,NV,47,BD,100,LM 45-49,Single-ply,147.5,,157.5,,305,2
M,Robert Harris,USA,NV,48,BD,100,LM 45-49,Single-ply,192.5,,227.5,,420,1
M,Jack Lano,USA,CA,84,BD,100,LM 80-84,Single-ply,50,,75,,125,1
M,Bob Beckett,USA,NV,47,BD,100,M 45-49,Single-ply,147.5,,157.5,,305,1
M,Jim Curley,USA,CO,51,BD,100,M 50-54,Single-ply,147.5,,202.5,,350,1
M,Charlie Jones,USA,AZ,57,BD,100,M 55-59,Single-ply,137.5,,180,,317.5,1
M,Jack Lano,USA,CA,84,BD,100,M 80-84,Single-ply,50,,75,,125,1
M,Bob Beckett,USA,NV,47,BD,100,Open,Single-ply,147.5,,157.5,,305,4
M,Christopher Melanson,USA,MA,32,BD,100,Open,Single-ply,182.5,187.5,220,,402.5,3
M,David Muro,USA,CA,36,BD,100,Open,Single-ply,215,,320,,535,2
M,Enrique Rodríguez #2,Mexico,,,BD,100,Open,Single-ply,,,,,,DQ
M,Oswaldo Aguirre,Mexico,,,BD,100,Open,Single-ply,230,,315,320.5,545,1
M,Kamal Charafeddine,Netherlands,,40,BD,100,R Open,Raw,187.5,,235,,422.5,1
M,Oswaldo Aguirre,Mexico,,,D,100,R Open,Raw,,,300.5,305,300.5,2
M,Nate Jamison,USA,MD,36,BD,100,R Sub,Raw,142.5,,215,,357.5,1
M,Clay Felton,USA,NV,,BD,100,RLM 40-44,Raw,130,,222.5,,352.5,1
M,Randy Cheatham,USA,AZ,,BD,100,RLM 45-49,Raw,155,,200,,355,1
M,Joe DeMarco,USA,CA,76,BD,100,RLM 75-79,Raw,112.5,115,150,,262.5,1
M,Kamal Charafeddine,Netherlands,,40,BD,100,RM 40-44,Raw,187.5,,235,,422.5,2
M,Steve Landry,USA,CA,41,BD,100,RM 40-44,Raw,182.5,,305,,487.5,1
M,Anthony Jones,USA,VA,40,BD,100,R Law/Mil 40-44,Raw,166,,182.5,,348.5,1
M,Randy Cheatham,USA,AZ,,BD,100,RM 45-49,Raw,155,,200,,355,1
M,Sam Emerson,USA,CA,17,BD,100,RT 16-17,Raw,92.5,,230.5,,323,1
M,David Muro,USA,CA,36,BD,100,Sub,Single-ply,215,,320,,535,1
M,Daniel Butler,USA,NY,16,BD,100,T 16-17,Single-ply,82.5,,172.5,,255,1
M,Phil Crawford,USA,CA,61,BD,110,LM 60-64,Single-ply,130,,165,,295,2
M,Robert Bolster,USA,FL,60,BD,110,LM 60-64,Single-ply,110,,190,,300,1
M,Robert Bolster,USA,FL,60,BD,110,M 60-64,Single-ply,110,,190,,300,1
M,Ryan Higgins,USA,CA,31,BD,110,R Open,Raw,,,,,,DQ
M,Brandon Blackwood,USA,CA,38,BD,110,R Sub,Raw,137.5,,230,,367.5,1
M,Mark Matthews Sr,USA,CA,43,BD,110,RLM 40-44,Raw,182.5,,232.5,,415,1
M,Felipe Zepeda,USA,CA,49,BD,110,RLM 45-49,Raw,147.5,,192.5,,340,1
M,Phil Crawford,USA,CA,61,BD,110,RLM 60-64,Raw,130,,165,,295,1
M,Thomas Schade,USA,CA,46,BD,110,RM 45-49,Raw,187.5,,282.5,,470,1
M,Ramon Figueroa #2,USA,CA,53,BD,110,R Law/Mil 50-54,Raw,150,,235,240,385,1
M,Phil Crawford,USA,CA,61,BD,110,RM 60-64,Raw,130,,165,,295,1
M,Jonathan Hoffman,USA,CA,19,BD,110,T 18-19,Single-ply,200,,215,,415,1
M,Wayne Alsup,USA,NC,55,BD,125,Law/Mil 55-59,Single-ply,167.5,,302.5,,470,1
M,Joe Dentice,USA,NV,48,BD,125,Life,Single-ply,177.5,,250,,427.5,1
M,Joe Dentice,USA,NV,48,BD,125,LM 45-49,Single-ply,177.5,,250,,427.5,1
M,Joe Dentice,USA,NV,48,BD,125,M 45-49,Single-ply,177.5,,250,,427.5,1
M,Wayne Alsup,USA,NC,55,BD,125,M 55-59,Single-ply,167.5,,302.5,,470,1
M,Joe Dentice,USA,NV,48,BD,125,Open,Single-ply,177.5,,250,,427.5,1
M,Igor Castang,France,,30,BD,125,R Open,Raw,,,,,,DQ
M,Larry Childers,USA,TN,30,BD,125,R Open,Raw,192.5,,265,,457.5,1
M,Scott Hamilton,USA,CA,42,BD,125,R Open,Raw,165,,182.5,,347.5,2
M,Scott Hamilton,USA,CA,42,BD,125,RM 40-44,Raw,165,,182.5,,347.5,1
M,Roger Morton,USA,AZ,51,BD,125,RM 50-54,Raw,,,,,,DQ
M,Ramon Palomino,Mexico,,,BD,140,M 40-44,Single-ply,,,,,,DQ
M,Salvador Ramirez,Mexico,,,BD,140,Open,Single-ply,,,,,,DQ
M,Steven Davenport,USA,NE,35,BD,140,Open,Single-ply,252.5,,330,,582.5,1
M,Zach Chirco,USA,MA,18,BD,140,Open,Raw,182.5,190,265,,447.5,1
M,William Pack,USA,CA,33,BD,140,R Life,Raw,145,,272.5,,417.5,1
M,John Heldt,USA,NV,36,BD,140,R Sub,Raw,177.5,,235,,412.5,1
M,Zach Chirco,USA,MA,18,BD,140,T 18-19,Single-ply,182.5,190,265,,447.5,1
M,Jay Dalen,USA,ND,40,BD,140+,Life,Single-ply,155,,295,,450,1
M,Jay Dalen,USA,ND,40,BD,140+,LM 40-44,Single-ply,155,,295,,450,1
M,Jay Dalen,USA,ND,40,BD,140+,Law/Mil 40-44,Single-ply,155,,295,,450,1
M,Jay Dalen,USA,ND,40,BD,140+,Open,Single-ply,155,,295,,450,1
M,Ron Heldt,USA,NV,63,BD,140+,RM 60-64,Raw,45,,137.5,,182.5,1
