Division,WeightClassKg,Place,Name,Team,BodyweightKg,Best3SquatKg,Best3BenchKg,Best3DeadliftKg,TotalKg,Equipment,Event,Sex
Boys,51.71,1,Jonathan Luna,Tulia,50.98,127.01,86.18,149.69,362.87,Single-ply,SBD,M
Boys,51.71,2,Ivan Antuna,Plainview,50.94,113.4,74.84,136.08,324.32,Single-ply,SBD,M
Boys,51.71,3,Carlos Raya,Plainview,50.76,99.79,65.77,99.79,265.35,Single-ply,SBD,M
Boys,51.71,4,Owen Norris,Bushland,51.71,86.18,61.23,102.06,249.48,Single-ply,SBD,M
Boys,51.71,5,Alex Figueroa,Sudan,51.17,77.11,54.43,97.52,229.06,Single-ply,SBD,M
Boys,51.71,6,Francisco Elizalde,Muleshoe,51.26,68.04,52.16,90.72,210.92,Single-ply,SBD,M
Boys,51.71,7,Jason Davis,Dumas,50.71,79.38,34.02,95.25,208.65,Single-ply,SBD,M
Boys,51.71,DQ,Zane Ponder,Plainview,50.94,104.33,,,,Single-ply,SBD,M
Boys,55.79,1,Adam Martin,Sudan,54.25,138.35,68.04,149.69,356.07,Single-ply,SBD,M
Boys,55.79,2,Jj Barrera,Tulia,54.98,124.74,77.11,154.22,356.07,Single-ply,SBD,M
Boys,55.79,3,Cory Chavira,Levelland,54.43,117.93,63.5,129.27,310.71,Single-ply,SBD,M
Boys,55.79,4,Ryan Shemwell,Panhandle,55.79,113.4,70.31,115.67,299.37,Single-ply,SBD,M
Boys,55.79,5,Dominque Pham,Amarillo Highland Park,54.61,115.67,63.5,111.13,290.3,Single-ply,SBD,M
Boys,55.79,6,Payton Riddell,Bushland,54.79,92.99,61.23,102.06,256.28,Single-ply,SBD,M
Boys,55.79,7,Noah Del Toro,Muleshoe,53.16,81.65,49.9,106.59,238.14,Single-ply,SBD,M
Boys,59.87,1,Bobby Clift,Canyon Randall,58.51,167.83,99.79,158.76,426.38,Single-ply,SBD,M
Boys,59.87,2,Carlos Sosa,Muleshoe,58.51,151.95,74.84,167.83,394.63,Single-ply,SBD,M
Boys,67.13,3,Corey Barker,Clarendon,60.06,131.54,102.06,161.03,394.63,Single-ply,SBD,M
Boys,59.87,4,Dimas Rodriguez,Plainview,59.06,147.42,97.52,142.88,387.82,Single-ply,SBD,M
Boys,59.87,5,Austin Marmelejo,Lubbock Monterey,56.25,124.74,74.84,131.54,331.12,Single-ply,SBD,M
Boys,59.87,6,Trent Morgan,Amarillo Highland Park,59.33,102.06,74.84,142.88,319.78,Single-ply,SBD,M
Boys,59.87,7,Xavier Trillo,Sudan,57.79,106.59,58.97,120.2,285.76,Single-ply,SBD,M
Boys,59.87,8,Fabian Bencomo,Dalhart,59.33,102.06,61.23,117.93,281.23,Single-ply,SBD,M
Boys,59.87,9,Zach Sanchez,Levelland,56.52,83.91,72.57,113.4,269.89,Single-ply,SBD,M
Boys,59.87,10,Austin Prescott,Bushland,56.7,97.52,52.16,106.59,256.28,Single-ply,SBD,M
Boys,59.87,11,Tyler Strader,Muleshoe,58.24,97.52,47.63,97.52,242.67,Single-ply,SBD,M
Boys,59.87,12,Kevin Fehr,Wolfforth Frenship,59.24,79.38,45.36,90.72,215.46,Single-ply,SBD,M
Boys,67.13,1,Broc Harris,Tulia,66.95,158.76,77.11,188.24,424.11,Single-ply,SBD,M
Boys,67.13,2,Elliot Hanna,Levelland,66.41,158.76,106.59,156.49,421.84,Single-ply,SBD,M
Boys,67.13,3,Michael Pardo,Hale Center,66.68,147.42,104.33,165.56,417.3,Single-ply,SBD,M
Boys,67.13,4,Frankie Medina,Dalhart,66.13,158.76,90.72,163.29,412.77,Single-ply,SBD,M
Boys,67.13,5,Cullen Holt,Plainview,66.72,154.22,97.52,151.95,403.7,Single-ply,SBD,M
Boys,67.13,6,Dominic Baca,Dalhart,64.23,136.08,92.99,172.37,401.43,Single-ply,SBD,M
Boys,67.13,7,Eli Saldana,Lubbock Monterey,62.14,136.08,81.65,142.88,360.61,Single-ply,SBD,M
Boys,67.13,8,Hunter Tollison,Borger,63.23,113.4,88.45,158.76,360.61,Single-ply,SBD,M
Boys,67.13,9,Joseph Tran,Amarillo Highland Park,65.41,140.61,77.11,140.61,358.34,Single-ply,SBD,M
Boys,67.13,10,Julian Nevarez,Dumas,60.69,136.08,61.23,158.76,356.07,Single-ply,SBD,M
Boys,67.13,11,Ryan Bybee,Dumas,63.59,136.08,61.23,156.49,353.8,Single-ply,SBD,M
Boys,67.13,12,Miguel Cardenas,Lubbock Monterey,65.14,117.93,81.65,142.88,342.46,Single-ply,SBD,M
Boys,67.13,13,Jonathan Swartzenberg,Canyon Randall,60.15,117.93,83.91,136.08,337.93,Single-ply,SBD,M
Boys,67.13,14,Zachary Gallaway,Hale Center,63.78,124.74,72.57,138.35,335.66,Single-ply,SBD,M
Boys,67.13,15,Salvador Salamanca,Sudan,60.42,120.2,74.84,129.27,324.32,Single-ply,SBD,M
Boys,67.13,16,Angel Cantu,Levelland,67.04,111.13,83.91,127.01,322.05,Single-ply,SBD,M
Boys,67.13,17,Mitchell Monk,Levelland,66.77,92.99,58.97,127.01,278.96,Single-ply,SBD,M
Boys,67.13,18,Andres Vasquez,Levelland,66.77,95.25,74.84,104.33,274.42,Single-ply,SBD,M
Boys,67.13,19,Darrion Kumm,Wolfforth Frenship,62.32,86.18,70.31,104.33,260.82,Single-ply,SBD,M
Boys,67.13,20,Adrian Chavez,Panhandle,66.95,47.63,52.16,72.57,172.37,Single-ply,SBD,M
Boys,67.13,DQ,Zach Rosas,Plainview,61.51,124.74,77.11,136.08,,Single-ply,SBD,M
Boys,67.13,DQ,Nathan Luna,Plainview,64.09,124.74,74.84,127.01,,Single-ply,SBD,M
Boys,67.13,DQ,Eric Vega,Plainview,65.86,136.08,81.65,163.29,,Single-ply,SBD,M
Boys,67.13,DQ,Nolan Willingham,Canyon Randall,61.33,,,,,Single-ply,SBD,M
Boys,74.84,DQ,Tyler Gano,Canyon Randall,67.22,,,,,Single-ply,SBD,M
Boys,74.84,1,Noah DiSalvo,Plainview,73.98,161.03,97.52,181.44,439.98,Single-ply,SBD,M
Boys,74.84,2,Jesus Romero,Dumas,74.66,154.22,106.59,174.63,435.45,Single-ply,SBD,M
Boys,74.84,3,Isaiah Carrasco,Plainview,71.4,154.22,102.06,170.1,426.38,Single-ply,SBD,M
Boys,74.84,4,Chris Hinojos,Plainview,73.98,163.29,88.45,172.37,424.11,Single-ply,SBD,M
Boys,74.84,5,Ethan Campbell,Borger,70.49,149.69,90.72,158.76,399.16,Single-ply,SBD,M
Boys,82.1,6,Phong Nguyen,Amarillo Highland Park,74.93,149.69,83.91,165.56,399.16,Single-ply,SBD,M
Boys,74.84,7,Tony Rivas,Plainview,74.84,151.95,86.18,158.76,396.89,Single-ply,SBD,M
Boys,74.84,8,Guillermo Davila,Dalhart,70.94,154.22,81.65,154.22,390.09,Single-ply,SBD,M
Boys,74.84,9,Kain Alexander,Levelland,74.21,138.35,86.18,149.69,374.21,Single-ply,SBD,M
Boys,74.84,10,Evan Shedd,Levelland,69.4,124.74,88.45,147.42,360.61,Single-ply,SBD,M
Boys,74.84,11,Mikal Minnor,Hale Center,69.76,136.08,79.38,136.08,351.53,Single-ply,SBD,M
Boys,74.84,12,Jason Hopkins,Panhandle,71.12,127.01,79.38,138.35,344.73,Single-ply,SBD,M
Boys,74.84,13,David Riley,Bushland,73.21,115.67,92.99,136.08,344.73,Single-ply,SBD,M
Boys,74.84,14,Kyzer Del Bustos,Wolfforth Frenship,72.76,113.4,90.72,113.4,317.51,Single-ply,SBD,M
Boys,74.84,15,Brennan Stroop,Bushland,68.67,102.06,83.91,127.01,312.98,Single-ply,SBD,M
Boys,74.84,16,Caleb McDaniel,Wolfforth Frenship,74.48,83.91,52.16,99.79,235.87,Single-ply,SBD,M
Boys,82.1,1,Adrian Gonzales,Plainview,80.83,195.04,124.74,195.04,514.83,Single-ply,SBD,M
Boys,82.1,2,Andrew Dunlap,Plainview,81.6,185.97,124.74,181.44,492.15,Single-ply,SBD,M
Boys,82.1,3,Michael Sansom,Plainview,79.47,188.24,108.86,185.97,483.08,Single-ply,SBD,M
Boys,82.1,4,Brandon Jackson,Tulia,78.47,174.63,108.86,183.7,467.2,Single-ply,SBD,M
Boys,82.1,5,Domingo Saucedo,Plainview,78.52,181.44,102.06,183.7,467.2,Single-ply,SBD,M
Boys,82.1,6,Isaiah Gonzales,Plainview,80.01,195.04,90.72,165.56,451.32,Single-ply,SBD,M
Boys,82.1,7,Osmar Diaz,Sudan,79.83,156.49,117.93,174.63,449.06,Single-ply,SBD,M
Boys,82.1,8,Zach Admire,Dumas,80.65,158.76,88.45,188.24,435.45,Single-ply,SBD,M
Boys,82.1,9,Zack Ponder,Plainview,75.89,176.9,90.72,161.03,428.64,Single-ply,SBD,M
Boys,82.1,10,Renee Barrera,Tulia,79.02,142.88,92.99,172.37,408.23,Single-ply,SBD,M
Boys,89.81,11,Jose Trejo,Sudan,82.28,154.22,83.91,165.56,403.7,Single-ply,SBD,M
Boys,82.1,12,Cade McCallie,Canyon,77.38,154.22,86.18,158.76,399.16,Single-ply,SBD,M
Boys,82.1,13,John Paul Acevedo,Hale Center,75.66,124.74,99.79,170.1,394.63,Single-ply,SBD,M
Boys,82.1,14,Jared Golden,Borger,78.56,165.56,74.84,147.42,387.82,Single-ply,SBD,M
Boys,82.1,15,Andrew Phillips,Lubbock Monterey,76.93,127.01,95.25,158.76,381.02,Single-ply,SBD,M
Boys,82.1,16,David Whitaker,Amarillo Highland Park,75.93,117.93,88.45,165.56,371.95,Single-ply,SBD,M
Boys,82.1,17,Kevin Olvera,Perryton,78.2,138.35,79.38,138.35,356.07,Single-ply,SBD,M
Boys,82.1,18,Nathan Rodriguez,Levelland,81.28,108.86,92.99,140.61,342.46,Single-ply,SBD,M
Boys,82.1,19,Jeremy Jones,Panhandle,80.56,102.06,68.04,142.88,312.98,Single-ply,SBD,M
Boys,82.1,20,Caleb Brumley,Canyon,78.74,102.06,61.23,145.15,308.44,Single-ply,SBD,M
Boys,82.1,DQ,Coleman Townsend,Plainview,79.42,151.95,81.65,140.61,,Single-ply,SBD,M
Boys,82.1,DQ,Federico Castro,Plainview,81.33,156.49,95.25,147.42,,Single-ply,SBD,M
Boys,82.1,DQ,Kody Harred,Canyon Randall,79.74,,,,,Single-ply,SBD,M
Boys,82.1,DQ,Conner McNair,Wolfforth Frenship,75.21,,,,,Single-ply,SBD,M
Boys,89.81,1,Tanner Hallford,Dumas,88.63,204.12,113.4,213.19,530.7,Single-ply,SBD,M
Boys,89.81,2,Aldo Marquez,Plainview,85.32,217.72,111.13,199.58,528.44,Single-ply,SBD,M
Boys,89.81,3,Stetson Casey,Wolfforth Frenship,86.91,197.31,113.4,208.65,519.36,Single-ply,SBD,M
Boys,89.81,4,Juan Chavira,Dalhart,88.99,192.78,111.13,213.19,517.1,Single-ply,SBD,M
Boys,89.81,5,Pedro Garcia,Canyon,88.45,181.44,115.67,181.44,478.54,Single-ply,SBD,M
Boys,89.81,6,Chris Galvan #2,Plainview,86.27,192.78,108.86,172.37,474,Single-ply,SBD,M
Boys,89.81,7,Nick Runkles,Levelland,85,170.1,104.33,181.44,455.86,Single-ply,SBD,M
Boys,89.81,8,Jacob Habel,Canyon Randall,87.63,165.56,95.25,183.7,444.52,Single-ply,SBD,M
Boys,89.81,9,Damion Montes,Sudan,86.82,163.29,90.72,163.29,417.3,Single-ply,SBD,M
Boys,89.81,10,Gabe Marquez,Dalhart,84.82,165.56,83.91,165.56,415.04,Single-ply,SBD,M
Boys,89.81,11,Myles Smith,Amarillo Highland Park,87.63,127.01,79.38,142.88,349.27,Single-ply,SBD,M
Boys,89.81,12,Adam Jones #6,Panhandle,84.1,127.01,77.11,138.35,342.46,Single-ply,SBD,M
Boys,89.81,13,Stewart Cowan,Panhandle,86.27,102.06,79.38,138.35,319.78,Single-ply,SBD,M
Boys,89.81,14,Jason Durham,Panhandle,82.46,108.86,68.04,122.47,299.37,Single-ply,SBD,M
Boys,89.81,DQ,Rudy Vasquez,Plainview,85.37,142.88,68.04,111.13,,Single-ply,SBD,M
Boys,99.79,1,Santana Vera,Plainview,99.29,229.06,124.74,217.72,571.53,Single-ply,SBD,M
Boys,99.79,2,Shane Smith,Levelland,95.53,208.65,124.74,197.31,530.7,Single-ply,SBD,M
Boys,99.79,3,Joel Gallardo,Canyon Randall,98.34,183.7,147.42,188.24,519.36,Single-ply,SBD,M
Boys,99.79,4,Angel Ornelas,Plainview,95.98,190.51,113.4,201.85,505.76,Single-ply,SBD,M
Boys,99.79,5,Brendan Voss,Plainview,94.03,188.24,117.93,183.7,489.88,Single-ply,SBD,M
Boys,99.79,6,Matt Foster,Wolfforth Frenship,97.16,204.12,90.72,181.44,476.27,Single-ply,SBD,M
Boys,99.79,7,Cameron Cave,Amarillo Highland Park,99.61,176.9,113.4,174.63,464.93,Single-ply,SBD,M
Boys,99.79,8,Eddie Campos,Levelland,99.79,170.1,127.01,163.29,460.4,Single-ply,SBD,M
Boys,99.79,9,Paul Childress #2,Lubbock Monterey,98.79,170.1,111.13,172.37,453.59,Single-ply,SBD,M
Boys,99.79,10,Javier Torres,Dalhart,97.25,165.56,92.99,181.44,439.98,Single-ply,SBD,M
Boys,99.79,11,Jake Allen #8,Lubbock Monterey,99.34,142.88,102.06,172.37,417.3,Single-ply,SBD,M
Boys,99.79,12,Tyler Barton,Canyon Randall,94.26,136.08,95.25,165.56,396.89,Single-ply,SBD,M
Boys,99.79,13,Matt Rios,Canyon Randall,91.44,131.54,83.91,151.95,367.41,Single-ply,SBD,M
Boys,99.79,14,Grant Caravelli,Wolfforth Frenship,98.79,154.22,65.77,147.42,367.41,Single-ply,SBD,M
Boys,99.79,15,Carlos Martinez #21,Muleshoe,91.08,145.15,81.65,111.13,337.93,Single-ply,SBD,M
Boys,99.79,16,Jason Demsky,Dumas,95.98,122.47,70.31,136.08,328.85,Single-ply,SBD,M
Boys,99.79,DQ,Hagen Kelly,Plainview,99.2,154.22,106.59,176.9,,Single-ply,SBD,M
Boys,99.79,DQ,Jaylen Owens,Plainview,99.38,176.9,108.86,176.9,,Single-ply,SBD,M
Boys,99.79,DQ,Aiden Lopez,Plainview,95.12,174.63,111.13,195.04,,Single-ply,SBD,M
Boys,109.77,1,Angelo Samarripa,Plainview,106.5,278.96,197.31,244.94,721.21,Single-ply,SBD,M
Boys,109.77,2,Trae Taylor,Levelland,102.15,276.69,165.56,238.14,680.39,Single-ply,SBD,M
Boys,109.77,3,Brett Cummings,Borger,101.51,249.48,142.88,238.14,630.49,Single-ply,SBD,M
Boys,109.77,4,Santiago Fabela,Plainview,108.54,231.33,156.49,219.99,607.81,Single-ply,SBD,M
Boys,109.77,5,Robert Barker,Wolfforth Frenship,109.23,226.8,102.06,226.8,555.65,Single-ply,SBD,M
Boys,109.77,6,Cameron Patterson,Dumas,103.69,195.04,113.4,204.12,512.56,Single-ply,SBD,M
Boys,109.77,7,Tanner Patterson,Canyon,104.05,188.24,131.54,181.44,501.22,Single-ply,SBD,M
Boys,109.77,8,Cole Campbell,Bushland,105.96,161.03,106.59,224.53,492.15,Single-ply,SBD,M
Boys,109.77,9,Spencer Holsey,Borger,107.41,181.44,99.79,192.78,474,Single-ply,SBD,M
Boys,109.77,10,Ivan Gonzales,Hale Center,103.06,167.83,97.52,176.9,442.25,Single-ply,SBD,M
Boys,109.77,11,Trevor Lee,Lubbock Monterey,103.6,147.42,106.59,176.9,430.91,Single-ply,SBD,M
Boys,109.77,12,Noel Landeros,Lubbock Monterey,101.33,156.49,102.06,170.1,428.64,Single-ply,SBD,M
Boys,109.77,13,Devin Jordan #1,Wolfforth Frenship,105.32,181.44,86.18,158.76,426.38,Single-ply,SBD,M
Boys,109.77,14,Jacob Acevedo,Hale Center,109.32,149.69,120.2,156.49,426.38,Single-ply,SBD,M
Boys,109.77,15,Brad Vincent,Canyon Randall,105.6,136.08,97.52,156.49,390.09,Single-ply,SBD,M
Boys,109.77,16,Hunter Pool,Panhandle,105.51,108.86,65.77,113.4,288.03,Single-ply,SBD,M
Boys,109.77,17,Dallyn Clements,Panhandle,101.97,92.99,65.77,127.01,285.76,Single-ply,SBD,M
Boys,124.74,1,Dallam Read,Dalhart,121.65,219.99,136.08,233.6,589.67,Single-ply,SBD,M
Boys,124.74,2,Sergio Vidales,Levelland,124.1,240.4,158.76,190.51,589.67,Single-ply,SBD,M
Boys,124.74,3,Tyler Wise,Panhandle,119.93,204.12,108.86,226.8,539.77,Single-ply,SBD,M
Boys,124.74,4,Cristian Murga,Dumas,121.29,158.76,124.74,233.6,517.1,Single-ply,SBD,M
Boys,124.74,5,Daniel Orona,Borger,120.02,181.44,138.35,195.04,514.83,Single-ply,SBD,M
Boys,124.74,6,Tucker Looney,Canyon,115.58,170.1,108.86,174.63,453.59,Single-ply,SBD,M
Boys,124.74,7,Adam Benites,Lubbock Monterey,119.84,161.03,117.93,147.42,426.38,Single-ply,SBD,M
Boys,124.74,8,O'Shae Grant,Wolfforth Frenship,119.57,142.88,65.77,156.49,365.14,Single-ply,SBD,M
Boys,124.74,9,Alex Chavez,Perryton,116.57,142.88,81.65,124.74,349.27,Single-ply,SBD,M
Boys,124.74,10,Trevor Vallejo,Canyon,116.03,117.93,81.65,129.27,328.85,Single-ply,SBD,M
Boys,124.74,11,Jordan Russell,Muleshoe,113.85,106.59,54.43,124.74,285.76,Single-ply,SBD,M
Boys,124.74,12,Tucker Wise,Panhandle,116.03,92.99,52.16,108.86,254.01,Single-ply,SBD,M
Boys,124.74,DQ,Weldon Wright,Perryton,113.31,149.69,,,,Single-ply,SBD,M
Boys,124.74+,1,Taylor York,Wolfforth Frenship,137.62,224.53,129.27,229.06,582.87,Single-ply,SBD,M
Boys,124.74+,2,Freddie Savage,Wolfforth Frenship,127.82,226.8,142.88,183.7,553.38,Single-ply,SBD,M
Boys,124.74+,3,Marcus Burk,Canyon Randall,133.45,217.72,149.69,183.7,551.11,Single-ply,SBD,M
Boys,124.74+,4,Ivan Trillo,Sudan,141.7,190.51,102.06,176.9,469.47,Single-ply,SBD,M
Boys,124.74+,5,Kyle Weiss #1,Panhandle,127.5,172.37,113.4,165.56,451.32,Single-ply,SBD,M
Boys,124.74+,6,Jessie Enriquez,Perryton,140.16,163.29,117.93,154.22,435.45,Single-ply,SBD,M
Boys,124.74+,7,Todd Garner,Wolfforth Frenship,129,142.88,113.4,163.29,419.57,Single-ply,SBD,M
